v -4.75738 8.49991 8.28592
v -4.55816 11.4788 7.74909
v -4.37277 13.9925 6.2828
v -5.70826 13.6563 6.26488
v -4.22943 15.6584 4.11027
v -4.14648 15.5999 -0.973337
v -5.89138 15.1606 -0.996753
v -4.2195 13.8844 -3.11048
v -5.55499 13.5482 -3.12841
v -4.3579 11.3375 -4.52382
v -4.54062 8.34704 -4.99819
v -6.35434 10.256 7.73386
v -7.69167 11.733 6.25465
v -8.56579 12.7062 4.07349
v -8.84361 13.0274 1.52244
v -8.48283 12.6477 -1.01012
v -7.5384 11.6249 -3.13864
v -6.15408 10.1147 -4.53906
v -8.97552 6.43001 6.29472
v -8.77853 5.01807 6.31419
v -10.2432 5.77752 4.12585
v -9.98584 3.93274 4.15128
v -10.6592 5.52786 1.57912
v -10.3807 3.53107 1.60664
v -10.1603 5.71902 -0.957758
v -9.90289 3.87424 -0.932328
v -8.82225 6.32192 -3.09856
v -8.62526 4.90998 -3.0791
v -6.38315 6.06753 7.78159
v -7.74491 3.99382 6.34284
v -8.63535 2.59448 4.18872
v -8.9189 2.08256 1.64716
v -8.5524 2.53598 -0.894892
v -7.59164 3.88572 -3.05044
v -6.18289 5.92629 -4.49133
v -4.94011 5.5094 7.81156
v -5.07851 2.96254 6.39822
v -5.15153 1.24705 4.26107
v -5.14804 0.624109 1.72548
v -5.06858 1.18855 -0.82254
v -4.92524 2.85444 -2.99507
v -4.73985 5.36817 -4.46136
v -7.0706 8.92177 7.73752
v -9.01515 9.26777 6.26142
v -10.295 9.48523 4.08234
v -10.7153 9.54105 1.53202
v -10.212 9.42673 -1.00127
v -8.86188 9.15967 -3.13186
v -6.87034 8.78053 -4.53539
v 3.06689 7.44818 8.1781
v 4.41256 5.15163 7.73953
v 5.52882 6.07891 7.74708
v 5.56925 3.1935 6.39422
v 7.63182 4.9069 6.40816
v 6.36086 1.87191 4.34698
v 9.05574 4.11057 4.36519
v 6.66688 1.38805 1.90947
v 9.5838 3.81116 1.92918
v 6.44072 1.81559 -0.547205
v 9.1356 4.05425 -0.528994
v 5.71681 3.08944 -2.64905
v 7.77938 4.80283 -2.63511
v 4.60536 5.01566 -4.07607
v 5.72161 5.94294 -4.06852
v 3.27557 7.30101 -4.61102
v 5.50737 7.6147 7.72905
v 7.59219 7.74466 6.37486
v 9.00396 7.81828 4.32167
v 9.52775 7.82435 1.88209
v 9.08382 7.76196 -0.572506
v 7.73975 7.64059 -2.66841
v 5.70017 7.47873 -4.08655
v 4.24481 2.57376 6.37974
v 4.6304 1.06218 4.32806
v 4.79385 0.511608 1.889
v 4.71026 1.00586 -0.566123
v 4.39237 2.4697 -2.66353
v 1.56309 2.21691 -2.70678
v 2.35738 4.54345 -4.10731
v 5.3624 8.37733 7.71791
v 7.32433 9.15382 6.35427
v 8.65399 9.65944 4.29478
v 9.14894 9.81721 1.85297
v 8.73385 9.60312 -0.599405
v 7.47189 9.04975 -2.689
v 5.5552 8.24136 -4.09769
v 5.02716 9.09409 7.70419
v 6.70488 10.4782 6.32892
v 7.84464 11.3899 4.26166
v 8.27291 11.6902 1.81712
v 7.9245 11.3335 -0.632524
v 6.85244 10.3742 -2.71435
v 5.21996 8.95812 -4.11141
v 3.98509 10.2057 7.67439
v 4.77938 12.5323 6.27386
v 5.32885 14.0736 4.18972
v 5.4087 14.0173 -0.704459
v 4.92694 12.4282 -2.7694
v 4.17788 10.0698 -4.1412
v 1.43857 11.2904 7.99724
v 1.22297 8.23418 8.54689
v 1.63826 13.8694 6.49567
v 1.79161 15.5785 4.27079
v 1.87656 15.5186 -0.935478
v 1.79523 13.7587 -3.12426
v 1.64367 11.1457 -4.57181
v 1.44496 8.07762 -5.05775
v 1.22935 5.02143 -4.5081
v 0.109369 11.5173 8.08861
v 0.260966 8.39879 8.6545
v -0.044623 16.484 1.62624
v 0.318235 11.37 -4.71169
v 0.48704 8.23935 -5.20045
v 0.717506 0.806139 4.47118
v 0.749946 2.4892 -3.10016
v -1.13035 11.5006 8.13536
v -1.74668 8.37122 8.69435
v -3.79653 8.23863 8.48928
v -0.590454 14.1412 6.59582
v -0.209199 15.8912 4.31012
v -0.121782 15.8295 -1.04724
v -0.428928 14.0273 -3.30329
v -0.919302 11.3517 -4.79846
v -1.51825 8.21012 -5.30511
v -3.57375 8.08151 -5.16403
v -3.14315 0.751817 4.43647
v -2.67448 2.44013 -3.20659
v -3.40434 5.00201 -4.60597
v -2.13458 5.08079 -4.74612
v 3.10607 0.36081 1.86319
v 2.01025 0.665233 3.46159
v 0.728609 0.709777 4.08052
v -1.27911 0.713773 4.19302
v -2.4527 0.646962 3.97884
v -3.16426 0.572725 3.70493
v -4.45952 0.631882 2.51377
v -4.85509 0.544053 1.73118
v -4.94168 0.630623 1.46448
v -4.99502 1.0372 -0.246242
v -4.73528 1.10603 -0.838825
v -3.67731 1.85411 -2.13205
v -2.77592 1.97451 -2.59843
v -2.0077 2.11522 -2.7512
v -0.284175 2.16168 -2.72592
v 0.760976 2.13345 -2.63729
v 1.39634 1.8936 -2.29471
v 2.51344 1.25355 -1.24982
v 2.90047 0.885059 -0.688787
v 3.1935 0.488349 1.32496
v 3.83935 -0.805325 4.58296
v 2.00029 -0.824144 5.45809
v -0.869574 -0.948624 5.60322
v -3.55014 -1.2731 4.8905
v -5.39527 -1.27405 3.1765
v -1.94658 0.998399 -4.33709
v 2.00733 1.2043 -4.15243
v 2.92803 0.903234 -3.65708
v 9.82595 -8.19113 2.72638
v 7.64818 -6.93235 6.48913
v 4.84526 -6.13281 8.005
v 0.361171 -5.01059 8.4029
v -3.96892 -4.26932 7.40681
v -6.91388 -3.39355 4.74932
v -0.949578 -1.32975 -7.55666
v 10.0569 -7.94343 1.47952
v 10.2071 -10.3571 2.79878
v 7.61595 -9.21649 6.92362
v 4.42178 -8.65619 8.55787
v -0.641765 -7.93569 8.93227
v -5.47279 -7.61868 7.76927
v -8.7732 -6.99782 4.78869
v -9.83652 -7.07128 2.81003
v -4.26344 -4.15053 -8.31429
v -2.2802 -4.06586 -8.73671
v 6.25629 -5.83678 -7.72208
v 10.4502 -10.0603 1.42311
v 10.1841 -12.4521 2.59144
v 7.40739 -11.5505 6.73944
v -1.07517 -11.069 8.67438
v -5.96691 -11.227 7.4371
v -9.32223 -10.9302 4.37455
v -10.364 -11.112 2.35613
v -10.5818 -10.8783 1.66786
v -10.6979 -9.81779 -2.75388
v -10.0272 -9.66673 -4.28938
v -7.22975 -7.84599 -7.64571
v -4.89419 -7.63186 -8.8633
v -2.89632 -7.35156 -9.26823
v 4.25954 -7.60605 -9.0104
v 5.87931 -8.29567 -8.13353
v 8.70924 -10.0734 -5.44796
v 9.67635 -11.0689 -4.00322
v 10.4167 -12.1307 1.19887
v 10.0895 -14.4941 2.32402
v -1.11324 -13.1148 8.37714
v -9.31946 -12.9744 4.09894
v -10.3562 -13.155 2.09057
v -10.5728 -12.9224 1.40573
v -10.6882 -11.8671 -2.99404
v -10.0209 -11.717 -4.52194
v -7.23691 -9.90601 -7.8617
v -4.91294 -9.69358 -9.07332
v -2.92492 -9.41523 -9.4763
v 4.19535 -9.67042 -9.22
v 10.321 -14.1744 0.938357
v -10.6247 -13.9039 -3.19465
v -9.97391 -13.7246 -4.67838
v -7.33994 -11.822 -7.91513
v -5.08362 -11.4958 -9.08055
v -3.16253 -11.1221 -9.46079
v 9.8982 -15.0515 0.769409
v -10.0904 -14.7445 -3.20405
v -9.4711 -14.576 -4.61638
v -6.95922 -12.7741 -7.69776
v -4.81125 -12.4712 -8.80781
v -2.98184 -12.1221 -9.17046
v -1.27805 -16.1844 6.71326
v -9.54759 -15.5747 -3.18775
v -8.96903 -15.4142 -4.50675
v -6.62996 -13.7181 -7.38393
v -4.62428 -13.424 -8.41959
v -2.91689 -13.0884 -8.75724
v -8.06873 -16.9821 -3.17874
v -7.54861 -16.8065 -4.36302
v -5.52178 -15.1527 -6.94087
v -3.72828 -14.7762 -7.86041
v -2.21008 -14.3786 -8.15337
v -4.82157 -15.6691 -6.5723
v -3.16841 -15.3106 -7.41945
v -1.76986 -14.9342 -7.68865
v -3.33284 -15.8714 -6.5609
v -2.14617 -15.592 -6.79205
v -7.06631 -17.0586 -4.24813
v -5.82705 -16.7092 -5.12276
v -4.75525 -16.185 -6.0021
v -3.86775 -16.2455 -6.07221
v -3.32466 -15.9573 -6.44984
v -3.09409 -15.9621 -6.44236
v -2.14977 -15.7519 -6.65138
v -1.64671 -15.868 -6.56379
v -0.105109 -15.9518 -6.4224
v -2.2743 -17.7076 4.65422
v -7.81608 -17.6062 -1.26796
v -8.37523 -16.8563 -2.61072
v -8.06944 -17.0008 -3.01084
v -8.05699 -16.991 -3.16328
v -8.05326 -16.9898 -3.17889
v -7.3571 -17.0759 -3.95333
v 2.41752 -18.5301 -1.49186
v -6.96729 -17.2164 -3.80403
v -4.66643 -17.2302 -4.72548
v -1.06655 -18.8826 -0.00741184
v -3.13164 -16.658 -5.68162
v 1.96389 -18.0074 -3.31457
v 0.221782 -18.5558 -2.03776
v -2.81702 -18.6062 -2.32675
v -0.481172 -16.3361 -6.11221
v -1.55786 -18.2 3.58568
v 0.272667 -17.8234 -4.01958
v -3.08719 -17.9962 -3.91307
v -1.55511 -18.6849 -1.77704
v -2.40318 -18.8407 -1.07766
v -2.801 -18.9854 -0.110608
v -1.38095 -17.1394 -5.1761
v -1.44724 -18.3031 -3.20154
v 2.63897 6.1351 7.95529
v 2.2415 6.52603 8.13076
v 1.16574 7.35057 8.40694
v 0.478433 7.47777 8.4854
v -1.00641 7.51494 8.52513
v -1.94848 7.31274 8.52364
v -3.10822 6.81115 8.34621
v -3.67003 6.14021 8.16263
v -3.89517 5.22479 7.96594
v -3.9036 4.7106 7.68634
v -3.63053 3.16202 6.85597
v -3.3914 2.65522 6.61963
v -3.17161 2.36461 6.34011
v -2.91497 2.09072 6.11252
v -1.47501 1.49186 5.34954
v -0.648239 1.47793 5.32492
v 0.666655 1.52282 5.35938
v 1.08281 1.59893 5.44738
v 2.24838 1.99487 5.81618
v 2.76341 2.44141 6.35709
v 3.22414 3.60691 7.03159
v 3.14859 4.88612 7.72196
v 3.01294 5.69633 7.86877
v 2.2052 6.28678 8.45224
v 1.13716 7.11992 8.69955
v -1.02469 7.29639 8.80526
v -1.96335 7.09926 8.80657
v -3.11946 6.60007 8.6408
v -3.68112 5.92959 8.47579
v -3.90868 5.01401 8.30595
v -3.65094 2.92811 7.26233
v -3.41443 2.41592 7.04268
v -2.94109 1.83742 6.55607
v -1.50798 1.21309 5.81901
v 0.623994 1.23484 5.83492
v 2.19915 1.71092 6.2809
v 2.71211 2.16871 6.80783
v 3.17381 3.34599 7.4466
v 3.10213 4.63922 8.09611
v 2.97024 5.45025 8.21819
v 0.937956 5.77072 9.80431
v 0.296637 6.35098 9.68917
v -1.06291 6.55265 9.6228
v -1.6649 6.47094 9.63976
v -2.41474 6.17872 9.63116
v -2.79699 5.76825 9.69004
v -2.9794 5.20426 9.82267
v -2.89133 3.72071 9.77564
v -2.76104 3.36026 9.7917
v -2.47878 2.88352 9.68015
v -1.5873 2.28244 9.47233
v -0.239985 2.22783 9.55589
v 0.767781 2.56641 9.74771
v 1.10213 2.95129 9.95104
v 1.43493 3.78138 10.0291
v 1.43594 4.69886 10.0629
v 1.38746 5.20214 9.91659
v 0.220628 5.43151 10.4831
v -0.211049 5.8154 10.4491
v -1.11504 5.93895 10.4276
v -1.51334 5.87778 10.4375
v -2.00788 5.67783 10.4178
v -2.25702 5.39919 10.4325
v -2.37161 5.0165 10.4846
v -2.29948 4.04132 10.3566
v -2.01868 3.49919 10.2363
v -1.42339 3.12507 10.0541
v -0.528769 3.09735 10.0967
v 0.137774 3.31864 10.2386
v 0.357399 3.56286 10.3956
v 0.570804 4.10905 10.4988
v 0.563019 4.71239 10.5808
v 0.524973 5.05355 10.5173
v -0.926686 3.93024 10.6759
v 6.55398 13.5239 1.76797
v 5.46971 14.2671 0.351879
v 3.79463 14.9153 -0.000997424
v 3.22951 15.1785 0.0496842
v 1.87585 15.8786 0.527197
v 1.45341 16.0884 1.08913
v 1.37622 16.2425 1.6522
v 1.41464 16.0988 2.24668
v 1.82405 15.803 3.25928
v 2.68577 15.3446 3.66849
v 4.66328 14.4889 3.68011
v 5.3746 14.1816 3.68242
v 6.63791 13.1611 2.65707
v 7.30438 13.9627 1.79605
v 6.27645 14.7225 0.267931
v 4.25863 15.7361 -0.209935
v 3.63369 16.0727 -0.15054
v 2.14165 16.9568 0.397597
v 1.67574 17.221 1.03887
v 1.59866 17.399 1.68087
v 1.63318 17.2304 2.35726
v 2.07967 16.8625 3.5088
v 3.02914 16.282 3.97204
v 6.00867 14.7807 3.98031
v 7.37626 13.5408 2.80698
v 7.62385 18.1897 1.89923
v 6.54958 18.2986 0.56169
v 4.60843 18.2157 0.124363
v 3.99531 18.2125 0.167129
v 2.49325 18.276 0.617373
v 2.02344 18.2988 1.16372
v 1.88356 18.4178 1.71247
v 1.97139 18.322 2.30047
v 2.44782 18.2585 3.30317
v 3.40124 18.2254 3.71745
v 6.27794 18.3265 3.76197
v 7.84098 17.9263 2.78283
v 6.90047 19.0397 1.90062
v 6.04837 19.1606 0.836163
v 4.50109 19.1527 0.488545
v 4.01311 19.1682 0.522843
v 2.81984 19.2621 0.882106
v 2.44685 19.2932 1.3174
v 2.33922 19.3909 1.75466
v 2.40649 19.311 2.22267
v 2.78407 19.2445 3.02081
v 3.54193 19.1892 3.35026
v 5.8341 19.1847 3.38473
v 7.06579 18.822 2.60364
v 6.21395 19.8874 1.91849
v 5.65797 19.9193 1.22765
v 4.65864 19.8353 1.00156
v 4.34246 19.8208 1.02349
v 3.56627 19.8228 1.25547
v 3.32331 19.8255 1.53735
v 3.29565 19.8379 2.1241
v 3.54242 19.8164 2.64189
v 4.03474 19.8199 2.85601
v 5.51635 19.9323 2.87953
v 6.3312 19.7573 2.37501
v 4.18157 20.3118 1.88735
v -2.58306 16.091 2.65485
v -2.94553 16.2995 1.58103
v -3.49391 16.1588 1.13726
v -4.14889 16.0292 0.77394
v -5.27386 15.6877 0.522317
v -5.9751 15.4942 0.443762
v -7.15823 14.6199 1.386
v -7.17212 14.6482 1.53106
v -7.00148 14.4255 3.20758
v -6.80753 14.5827 3.34219
v -5.98386 15.2974 3.709
v -4.49802 15.6716 3.72825
v -4.21436 15.7655 3.62701
v -2.59426 16.0212 2.96948
v -2.34862 16.9783 2.66933
v -2.82784 17.1819 1.40039
v -4.22087 16.6875 0.455503
v -6.29961 15.7788 0.0843872
v -7.54425 14.5528 1.21206
v -7.56239 14.5823 1.38533
v -7.32352 14.3118 3.30397
v -6.22077 15.5043 3.96742
v -4.52457 16.1748 3.97168
v -2.34542 16.8903 3.0429
v -3.01288 18.8235 2.54077
v -3.50457 19.0292 1.24491
v -4.9252 18.516 0.280331
v -7.04332 17.5749 -0.0978523
v -8.30637 16.3142 1.05432
v -8.07792 16.0681 3.19106
v -6.95838 17.2929 3.86872
v -5.22981 17.9884 3.87227
v -3.0088 18.7334 2.92234
v -3.41289 19.7473 2.38718
v -3.79589 19.9859 1.21049
v -5.11829 19.7359 0.323344
v -7.13414 19.2235 -0.0441719
v -8.46645 18.3191 0.98391
v -8.33636 18.0982 2.91231
v -7.16604 19.0207 3.52728
v -5.52726 19.37 3.55378
v -3.42932 19.6727 2.73144
v -4.10458 20.8934 1.19076
v -5.24744 20.6272 0.424129
v -6.98002 20.1039 0.111395
v -8.09716 19.2622 1.00788
v -7.96684 19.069 2.6834
v -6.98379 19.9143 3.21642
v -5.57386 20.2822 3.23366
v -3.76702 20.6306 2.51063
v -5.99411 20.8336 1.53989
v -6.56552 20.6337 1.15261
v -7.41877 20.2657 1.00029
v -7.93136 19.7663 1.46214
v -7.84192 19.6675 2.31912
v -7.38792 20.1538 2.59092
v -6.69177 20.425 2.59293
v -5.79748 20.7134 2.21285
v -7.75956 20.2563 1.94475
v 4.48925 -0.397565 1.67891
v 4.57894 -0.882098 3.27228
v 5.27839 -2.27325 4.02403
v 6.62658 -4.02433 4.06797
v 7.87742 -5.27254 2.85548
v 8.22375 -5.4852 2.27964
v 8.57684 -5.65355 1.49826
v 6.9201 -0.0256538 0.20717
v 6.15406 0.402319 1.66312
v 6.16107 -0.154891 3.60397
v 6.7973 -1.69642 4.38487
v 7.77466 -3.3153 4.5424
v 8.07509 -3.67347 4.39685
v 9.26668 -5.10215 3.07468
v 9.94617 -5.56135 1.61311
v 9.41036 -0.307409 -2.05757
v 8.79848 0.353463 -1.14807
v 7.21724 0.790581 1.26676
v 7.07029 0.716171 1.68495
v 10.2365 0.0688409 -2.1062
v 9.50096 0.683983 -1.18244
v 7.74608 0.96038 1.28048
v 7.59074 0.867861 1.71164
v 9.90186 0.897039 -0.833129
v 8.25287 1.11061 1.43852
v 8.10856 1.02133 1.83734
v 8.29903 0.251361 4.66989
v -6.36897 -2.08303 3.09681
v -5.69707 -1.35701 2.56433
v -5.57289 -0.658732 1.83414
v -10.1489 -6.09284 -2.26788
v -10.0235 -6.57983 -0.0838391
v -9.95684 -6.46862 0.504061
v -9.46798 -6.09282 2.09362
v -9.10984 -5.67683 2.87062
v -8.26308 -4.87005 3.72731
v -7.45137 -3.37247 3.78015
v -7.16428 -3.06783 3.67282
v -6.67091 -0.662902 2.58258
v -6.50936 -0.0829995 1.98202
v -11.2538 -4.85307 -2.10646
v -11.2033 -5.36352 0.0954123
v -10.6177 -4.93125 2.17868
v -10.2386 -4.55644 2.91991
v -9.36367 -3.84182 3.73211
v -8.48087 -2.46548 3.77105
v -8.92779 -0.335116 2.33319
v -8.76011 0.146913 1.81859
v -8.78474 0.770169 -0.221074
v -10.1688 -0.658255 -2.58451
v -11.7086 -2.32491 -2.56433
v -12.2362 -2.83833 -2.38518
v -13.1129 -3.63074 -1.61759
v -13.0839 -4.06319 0.260004
v -12.5438 -3.72669 2.02999
v -12.1932 -3.42937 2.65788
v -11.3999 -2.87291 3.34162
v -10.5661 -1.75596 3.36453
v -10.9723 0.631453 2.3975
v -10.8013 1.1406 1.83161
v -10.8212 1.66155 0.00288689
v -10.7461 1.33495 -1.13531
v -11.6032 0.799209 -1.95499
v -12.1555 0.351906 -2.20646
v -13.6342 -1.17553 -2.18182
v -14.1392 -1.64476 -2.01205
v -14.9757 -2.36719 -1.28973
v -14.9527 -2.77136 0.469803
v -14.4345 -2.46653 2.12641
v -14.0978 -2.19519 2.71349
v -13.3407 -1.69077 3.35144
v -12.5351 -0.662741 3.36961
v -12.6167 2.19046 2.46841
v -12.4681 2.59725 2.03055
v -12.4837 3.12599 0.297094
v -12.413 2.83047 -0.735134
v -13.1867 2.34002 -1.47922
v -13.6849 1.93135 -1.70776
v -15.0174 0.537896 -1.68679
v -15.4728 0.109514 -1.53329
v -16.2279 -0.550468 -0.87897
v -16.206 -0.917258 0.716651
v -15.739 -0.638289 2.21944
v -15.4356 -0.390463 2.75215
v -14.7522 0.0710721 3.33135
v -14.0274 1.00785 3.34862
v -13.4888 3.11345 2.33796
v -13.3071 3.42523 1.96002
v -13.2698 3.86014 0.48542
v -13.2826 3.59795 -0.389068
v -14.0239 3.31552 -1.00019
v -14.5113 3.0575 -1.18034
v -15.8511 2.12023 -1.12333
v -17.0215 1.41992 -0.404004
v -17.0296 1.11811 0.952161
v -16.562 1.27901 2.21493
v -15.599 1.70969 3.13181
v -14.8399 2.36841 3.12359
v -13.9133 3.73789 2.07651
v -13.7092 3.90976 1.77293
v -13.6158 4.20632 0.624829
v -13.7316 4.01734 -0.0456754
v -14.3675 4.01993 -0.487899
v -14.7976 3.97045 -0.606147
v -15.0572 3.90165 -0.62649
v -16.0229 3.67253 -0.500558
v -16.4176 3.59725 -0.369986
v -17.0348 3.50046 0.106818
v -17.0743 3.29107 1.1601
v -16.6449 3.28072 2.11708
v -16.3642 3.31053 2.44668
v -15.7964 3.32386 2.78544
v -15.0653 3.58473 2.74197
v -14.248 4.23078 1.80164
v -14.0916 4.33262 1.58225
v -14.012 4.53037 0.761832
v -14.1192 4.40557 0.286213
v -14.5735 4.4646 -0.0216396
v -14.8833 4.46884 -0.100772
v -15.7752 4.37124 -0.0102543
v -16.0595 4.35469 0.0876166
v -16.4988 4.34437 0.434824
v -16.5335 4.203 1.18668
v -16.2197 4.15892 1.86371
v -15.6082 4.11329 2.33008
v -15.0682 4.23032 2.28962
v -15.9916 5.14779 1.11682
v 10.6535 -0.287442 -2.38225
v 10.5153 0.415482 -1.57533
v 10.3469 0.894247 -0.640308
v 10.1346 1.01274 0.475619
v 9.88308 1.10515 1.7915
v 9.69893 0.844946 2.71238
v 9.33596 0.337692 4.52825
v 9.08499 -1.17756 5.63304
v 9.03461 -2.56465 5.73982
v 9.51797 -4.31722 5.12965
v 9.9375 -5.15482 3.94526
v 10.1474 -5.47249 3.25563
v 10.489 -5.76828 1.92136
v 10.557 -5.79106 1.62117
v 10.639 -5.68674 1.13277
v 11.9973 -0.268931 -2.16815
v 11.8638 0.457681 -1.33087
v 11.6963 0.952322 -0.361661
v 11.2215 1.16887 2.15601
v 10.6491 0.373136 4.98643
v 10.3723 -1.19507 6.12547
v 10.3036 -2.6301 6.23188
v 10.782 -4.4476 5.59469
v 11.4173 -5.64501 3.65125
v 11.8355 -5.9747 1.95844
v 12.2301 -5.30485 -0.523642
v 12.2942 -4.5346 -1.52329
v 12.1835 -2.25059 -3.05643
v 12.0874 -1.80598 -2.93556
v 13.9572 -1.05232 -1.97531
v 13.8364 -0.2831 -1.08139
v 13.6739 0.239951 -0.0488139
v 13.1815 0.465805 2.62666
v 12.5597 -0.382192 5.62789
v 12.2275 -2.04677 6.82773
v 12.1173 -3.56872 6.93161
v 12.5759 -5.50606 6.24222
v 13.2144 -6.78088 4.16964
v 13.6457 -7.13071 2.36929
v 14.0763 -6.41394 -0.262485
v 14.1621 -5.5916 -1.31896
v 14.1008 -3.15462 -2.93161
v 15.2963 -2.37617 -1.27917
v 15.2619 -1.71736 -0.483102
v 15.1714 -1.27162 0.429207
v 14.7808 -1.0909 2.77069
v 14.1901 -1.83818 5.37543
v 13.7703 -3.28035 6.3905
v 13.5478 -4.59416 6.45105
v 13.7791 -6.29929 5.80659
v 14.2127 -7.41529 3.96813
v 14.5458 -7.71697 2.38764
v 14.9621 -7.07538 0.103984
v 15.0984 -6.34659 -0.801108
v 15.2385 -4.1925 -2.15696
v 16.2406 -3.8503 -0.47505
v 16.3083 -3.36177 0.172286
v 16.3055 -3.035 0.90512
v 16.0481 -2.92233 2.75786
v 15.5154 -3.51171 4.79124
v 15.0088 -4.60883 5.55006
v 14.6633 -5.60024 5.55943
v 14.6115 -6.93099 4.9953
v 14.7835 -7.7914 3.50789
v 14.9873 -8.0159 2.25058
v 15.3736 -7.49633 0.468936
v 15.5672 -6.91874 -0.221758
v 15.9477 -5.22139 -1.22188
v 16.7955 -5.47703 0.304608
v 16.9407 -5.19506 0.774473
v 17.0089 -5.01218 1.29822
v 16.878 -4.97963 2.59659
v 16.4311 -5.37348 3.99579
v 15.8915 -6.04891 4.48626
v 15.4717 -6.64709 4.4569
v 15.178 -7.49938 4.00698
v 15.1136 -8.03382 2.93119
v 15.1939 -8.1604 2.04281
v 15.5321 -7.79802 0.818895
v 15.764 -7.41426 0.360111
v 16.3306 -6.30174 -0.268282
v 16.8373 -6.37432 0.678351
v 16.9739 -6.18606 1.03742
v 17.0446 -6.06653 1.43575
v 16.9581 -6.05941 2.41707
v 16.5981 -6.34649 3.46837
v 16.1379 -6.8164 3.82907
v 15.7707 -7.2274 3.79816
v 15.4731 -7.83051 3.44345
v 15.3708 -8.20161 2.62121
v 15.4139 -8.28384 1.94764
v 15.6909 -8.01474 1.02891
v 15.8952 -7.73726 0.688791
v 16.4129 -6.93913 0.233048
v 17.0743 -7.10653 2.04129
v 7.34296 -13.1902 6.50867
v 5.91079 -12.3487 7.32778
v 4.08845 -11.9719 8.25934
v 2.32839 -12.5529 8.27078
v 1.85444 -13.2464 8.19529
v 1.13496 -14.2265 7.77354
v 0.856109 -15.8474 6.89498
v 8.70611 -15.016 6.87116
v 8.22512 -14.5234 7.9584
v 6.69016 -13.6781 9.10954
v 4.72019 -13.3159 10.247
v 2.62295 -13.7927 10.1508
v 2.01817 -14.4835 9.88869
v 1.11002 -15.3695 9.17281
v 0.636617 -16.8784 7.77461
v 0.75201 -17.4806 6.43341
v 9.11638 -18.3209 6.87457
v 9.50146 -17.5945 6.97487
v 9.43912 -15.9139 8.305
v 8.85565 -15.1436 9.24869
v 7.13062 -14.1264 10.1607
v 5.00841 -13.6458 11.2142
v 2.87891 -14.3975 11.2923
v 2.33444 -15.2377 11.2513
v 1.50657 -16.4485 10.8196
v 1.21992 -18.4396 9.89118
v 1.44059 -19.4406 8.73144
v 2.00535 -20.2057 7.86012
v 2.92835 -20.7018 6.553
v 3.51329 -20.8754 5.80802
v 4.90867 -20.7855 5.08494
v 5.32743 -20.7163 5.03796
v 5.72898 -20.6413 5.0824
v 7.11086 -20.173 5.5667
v 7.50689 -19.9746 5.80125
v 8.86898 -18.7036 6.51928
v 9.19698 -18.532 7.76905
v 9.55847 -17.8557 7.8679
v 9.50503 -16.2963 9.12182
v 8.96256 -15.5825 10.0084
v 7.35507 -14.6348 10.8674
v 5.37533 -14.188 11.8547
v 3.38531 -14.8844 11.9224
v 2.87472 -15.667 11.878
v 2.09849 -16.7918 11.4663
v 1.82533 -18.643 10.5852
v 2.02847 -19.5696 9.49529
v 2.55349 -20.2791 8.67627
v 3.41366 -20.7352 7.45234
v 3.95916 -20.8934 6.75555
v 5.26197 -20.8081 6.08103
v 5.65308 -20.7443 6.03762
v 6.02815 -20.6758 6.0796
v 7.31953 -20.2459 6.53493
v 7.6898 -20.0635 6.75527
v 8.96493 -18.8859 7.43463
v 9.81741 -18.6588 8.66122
v 10.2449 -17.9746 8.86704
v 10.2752 -16.5025 10.441
v 9.73164 -15.8465 11.4981
v 8.05644 -14.8763 12.5682
v 5.95192 -14.4375 13.7013
v 3.77198 -15.075 13.6806
v 3.17795 -15.872 13.5177
v 2.2792 -16.9622 12.9129
v 1.88027 -18.7829 11.6941
v 2.04709 -19.6151 10.3901
v 2.57207 -20.2757 9.40587
v 3.47268 -20.6244 8.02631
v 4.05126 -20.718 7.25598
v 5.45809 -20.5993 6.54148
v 5.88236 -20.5472 6.50237
v 6.28953 -20.5021 6.5551
v 7.70204 -20.1878 7.09742
v 8.11031 -20.0483 7.35761
v 8.25899 -19.9517 7.48511
v 9.54807 -18.9713 8.25246
v 9.58057 -18.9569 9.05401
v 9.96952 -18.3458 9.24909
v 10.0051 -17.042 10.6882
v 9.51895 -16.463 11.6502
v 8.01482 -15.5952 12.6287
v 6.12098 -15.2046 13.6564
v 4.15315 -15.7669 13.6292
v 3.61354 -16.4795 13.4713
v 2.79767 -17.4484 12.9111
v 2.42815 -19.0693 11.7871
v 2.57375 -19.8014 10.6003
v 3.04308 -20.3854 9.70385
v 3.8525 -20.6848 8.45562
v 4.37322 -20.7613 7.76005
v 5.64145 -20.6517 7.11759
v 6.02405 -20.6065 7.08297
v 6.3912 -20.5688 7.13102
v 7.66584 -20.3009 7.62376
v 8.03454 -20.1812 7.86008
v 8.16906 -20.0967 7.97629
v 9.3361 -19.2313 8.68132
v 9.16118 -17.9974 10.2502
v 9.19505 -17.117 11.2743
v 8.86106 -16.7285 11.9538
v 7.82098 -16.1324 12.6503
v 6.50661 -15.8664 13.3726
v 5.13411 -16.2436 13.3443
v 4.75392 -16.7325 13.2219
v 4.17977 -17.3906 12.8153
v 3.91152 -18.4949 12.0047
v 4.00758 -18.9836 11.1663
v 4.32987 -19.3768 10.5323
v 4.89056 -19.568 9.65874
v 5.25209 -19.6122 9.17352
v 6.65683 -19.4807 8.73884
v 7.89676 -19.1798 9.3344
v 8.71449 -18.5986 9.83974
v 6.64402 -18.7074 10.7009
v -2.7598 -13.1675 7.96074
v -3.4691 -12.1985 7.92087
v -4.87975 -11.4074 7.68177
v -5.80737 -11.289 7.468
v -5.96726 -11.2781 7.42983
v -6.64102 -11.1674 6.82182
v -7.93342 -11.9029 5.52652
v -8.47724 -13.0491 4.86764
v -2.717 -16.3949 6.24832
v -2.54372 -15.4002 6.82977
v -2.29336 -14.0157 7.62177
v -3.04888 -13.4592 9.21565
v -3.76748 -12.4633 9.14836
v -5.20626 -11.6499 8.8856
v -6.31952 -11.5165 8.6285
v -7.00931 -11.416 8.0074
v -8.32452 -12.1629 6.73106
v -8.91404 -13.3864 6.07149
v -8.93624 -14.1109 5.64083
v -3.03806 -16.8136 7.56161
v -2.57962 -14.341 8.89267
v -3.24346 -13.5306 10.835
v -3.92455 -12.4866 10.4164
v -5.40134 -11.6197 9.89744
v -6.59156 -11.4632 9.63007
v -7.36053 -11.5208 8.99618
v -8.91596 -12.6001 8.05111
v -9.69769 -14.0017 7.87677
v -9.81594 -14.8817 7.72171
v -10.0166 -16.5107 8.01671
v -9.40699 -18.1108 7.8723
v -8.24748 -19.5917 7.7336
v -7.31257 -20.2074 7.80809
v -5.98394 -20.4492 8.17118
v -5.17774 -19.6177 9.30431
v -3.64583 -17.4907 10.4527
v -2.84537 -14.5801 10.8295
v -3.54228 -13.4549 11.8096
v -4.21392 -12.4257 11.4018
v -5.66877 -11.5715 10.894
v -6.84075 -11.4176 10.6306
v -7.59743 -11.4723 10.0057
v -9.12705 -12.5324 9.06897
v -9.89496 -13.9126 8.89019
v -10.0102 -14.7786 8.73328
v -10.206 -16.3842 9.01595
v -9.60367 -17.9583 8.86665
v -8.46004 -19.4144 8.72389
v -7.53877 -20.0199 8.79497
v -6.23046 -20.2581 9.15224
v -5.43841 -19.4437 10.2724
v -3.93337 -17.3529 11.4142
v -3.149 -14.4877 11.7995
v -3.59656 -13.035 13.5552
v -4.36284 -11.8849 13.2427
v -5.97709 -10.9383 12.7791
v -7.25975 -10.7756 12.4887
v -8.07597 -10.774 11.7843
v -9.68946 -11.8445 10.5858
v -10.4734 -13.3432 10.1801
v -10.5637 -14.2642 9.88523
v -10.7218 -16.0524 9.96129
v -10.0006 -17.717 9.59114
v -8.69218 -19.2354 9.25694
v -7.66306 -19.8694 9.26955
v -6.2298 -20.132 9.65313
v -5.41467 -19.3793 11.0011
v -3.86887 -17.2202 12.5683
v -3.12706 -14.1397 13.4076
v -4.13339 -13.6667 13.8504
v -4.83369 -12.6222 13.5908
v -6.30076 -11.7635 13.187
v -7.46319 -11.617 12.9233
v -8.19881 -11.6037 12.284
v -9.65267 -12.5564 11.167
v -10.3529 -13.9095 10.7627
v -10.4283 -14.7377 10.4743
v -10.5611 -16.3604 10.502
v -9.89648 -17.8558 10.1312
v -8.70062 -19.216 9.79826
v -7.76426 -19.7847 9.79869
v -6.46503 -20.0229 10.145
v -5.7351 -19.3669 11.386
v -4.35209 -17.4374 12.8602
v -3.70086 -14.6614 13.6931
v -4.91278 -14.1321 14.0506
v -5.49384 -13.2785 13.8794
v -6.69692 -12.5784 13.578
v -7.64451 -12.4606 13.3622
v -8.24201 -12.4309 12.8364
v -9.40828 -13.1741 11.8783
v -9.96142 -14.2658 11.487
v -10.0119 -14.9285 11.2164
v -10.102 -16.2519 11.1689
v -9.54123 -17.446 10.8074
v -8.54925 -18.5259 10.486
v -7.77963 -18.9785 10.468
v -6.72001 -19.173 10.7481
v -6.13968 -18.6841 11.791
v -5.04276 -17.1614 13.0822
v -4.5481 -14.9304 13.8829
v -5.7059 -14.6758 13.6914
v -6.12426 -14.0593 13.5622
v -6.99242 -13.5534 13.3406
v -7.677 -13.4681 13.1848
v -8.10808 -13.449 12.8062
v -8.95412 -13.9909 12.1198
v -9.3562 -14.7814 11.8456
v -9.39417 -15.262 11.655
v -9.46181 -16.2182 11.6304
v -9.05933 -17.0845 11.3773
v -8.34505 -17.8689 11.1519
v -7.78992 -18.1974 11.1415
v -7.02448 -18.3379 11.3441
v -6.60321 -17.9782 12.0934
v -5.80653 -16.871 13.014
v -5.44413 -15.2543 13.5757
v -7.61104 -14.4841 13.0272
v -2.36336 -9.27381 -9.43989
v -0.857446 -7.68471 -9.2209
v 1.1529 -7.85642 -9.15852
v 1.54786 -8.2889 -9.18625
v 2.12935 -9.59637 -9.29436
v 2.26857 -10.644 -9.23577
v 2.25022 -11.0267 -9.2308
v 2.23927 -11.2545 -9.16711
v 1.9765 -12.0524 -8.96194
v 1.43696 -12.7215 -8.69051
v 1.1865 -13.0077 -8.58188
v -1.97388 -12.1079 -9.12807
v -2.01864 -11.962 -9.16984
v -2.27164 -11.1064 -9.42293
v -2.48343 -10.2983 -9.44414
v -2.74235 -8.71723 -10.2178
v -0.968673 -6.83641 -10.1894
v 1.39184 -7.03215 -10.0625
v 1.85433 -7.54125 -10.0221
v 2.5331 -9.08247 -9.93657
v 2.66783 -10.7388 -9.63833
v 2.6531 -10.9942 -9.52884
v 2.33804 -11.8909 -9.16934
v 1.40048 -12.9422 -8.58887
v -1.06022 -13.3963 -8.47276
v -1.73711 -13.0139 -8.75024
v -2.30162 -11.9707 -9.40827
v -2.64307 -10.8493 -9.9116
v -2.888 -9.91082 -10.0649
v -2.37497 -8.28297 -11.9537
v -0.879504 -6.8486 -11.2672
v 1.11645 -7.00475 -11.3198
v 1.50851 -7.39556 -11.4986
v 2.08559 -8.5767 -12.0453
v 2.21133 -9.93494 -12.4593
v 1.95073 -10.9869 -12.5375
v 1.18125 -12.0158 -12.4745
v -0.890045 -12.4433 -12.4849
v -1.4712 -12.0608 -12.5262
v -1.97157 -11.0335 -12.6041
v -2.2784 -10.0029 -12.5427
v -2.49131 -9.2421 -12.2912
v -1.8619 -7.7257 -12.5409
v -0.772848 -6.83707 -11.8227
v 0.669533 -6.92442 -11.9181
v 0.950917 -7.16305 -12.1201
v 1.36183 -7.88691 -12.726
v 1.44901 -8.76163 -13.2642
v 1.26168 -9.48531 -13.506
v 0.70872 -10.2217 -13.6372
v -0.787859 -10.5319 -13.6907
v -1.2095 -10.2603 -13.6413
v -1.57475 -9.53026 -13.5017
v -1.79785 -8.82194 -13.2669
v -1.94936 -8.33646 -12.9495
v -1.47495 -7.43161 -12.9047
v -0.692286 -6.81428 -12.3671
v 0.342475 -6.87314 -12.4415
v 0.544019 -7.03825 -12.5939
v 0.837798 -7.53959 -13.05
v 0.899551 -8.15126 -13.4611
v 0.764982 -8.66332 -13.6548
v 0.368344 -9.18794 -13.7685
v -0.705431 -9.40987 -13.812
v -1.00801 -9.21685 -13.7678
v -1.27019 -8.6977 -13.6459
v -1.43012 -8.19674 -13.4568
v -1.53834 -7.85787 -13.2149
v -0.358819 -8.16598 -14.0506
v -2.5032 -18.3093 3.42843
v -2.72296 -17.9243 4.31298
v -2.77037 -17.7981 4.52864
v -3.17051 -16.9932 5.54093
v -3.70045 -17.66 5.78613
v -4.04795 -18.1936 5.96706
v -4.35338 -18.6194 5.96883
v -5.75755 -19.3271 5.65487
v -3.10401 -18.9815 0.118243
v -2.87316 -18.9613 0.919021
v -2.43034 -18.9319 1.51088
v -2.43755 -18.7311 2.16225
v -2.45555 -18.6407 2.49948
v -2.8819 -18.594 2.60579
v -3.3477 -17.9951 4.22083
v -4.73169 -18.5409 5.3324
v -3.05025 -18.8868 1.32695
v -4.20451 -18.5861 2.46404
v 0.710033 -18.6592 -1.13716
v 2.05913 -18.5918 -0.991563
v 1.1849 -18.6772 -0.388354
v 2.0053 -18.5954 -0.0572764
v 6.39237 -19.2056 4.52445
v 5.64925 -19.492 4.31942
v 5.11194 -19.7103 4.19143
v 4.94849 -19.6813 4.14407
v 4.80878 -19.6293 4.11309
v 2.31056 -18.5814 0.00696266
v 2.31729 -18.5894 -0.199142
v 2.43539 -18.5631 -0.843749
v 2.44597 -18.5293 -1.4531
v 2.45303 -18.5229 -1.48664
v 2.49745 -18.5069 -1.51347
v 5.1406 -18.077 0.480865
v 4.07834 -18.3617 0.515857
v 5.22713 -18.2215 2.5594
v 5.81359 -17.8825 0.0851822
v 3.00872 -18.5057 -0.0576055
v 3.14933 -18.3627 -1.35805
v 4.38525 -18.2252 -0.367964
v 5.92121 -18.5314 3.73028
v 4.34849 -18.3148 1.56501
v 4.91719 -19.2931 3.9138
v 5.37922 -18.0257 1.43056
v 6.05171 -17.8258 1.75273
v 5.97412 -17.8562 0.703995
v 6.69838 -17.9455 3.8116
v 6.21127 -17.8071 2.81881
v -3.18127 -18.5547 -2.43093
v -3.67717 -18.7671 -1.69418
v -3.73708 -18.9004 -1.14441
v -3.79848 -18.9199 -0.96519
v -4.00371 -18.9244 -0.291902
v -4.38725 -18.8175 1.00334
v -4.56981 -18.6552 1.98117
v -4.45477 -18.5806 2.4171
v -4.61064 -18.5087 2.72066
v -4.84134 -18.3394 3.59287
v -5.04337 -18.3805 4.2763
v -5.37729 -18.5271 4.81816
v -6.32656 -18.9699 5.20353
v -6.32757 -18.9726 5.201
v -7.4415 -18.7064 5.42364
v -7.80517 -17.6252 -1.22005
v -7.80636 -17.6167 -1.25609
v -7.78643 -17.6216 -1.28054
v -7.08846 -17.7627 -2.27
v -6.73389 -17.8435 -2.48148
v -5.9734 -17.8601 -3.11616
v -4.79512 -17.9834 -3.41273
v -3.7544 -18.2241 -3.20044
v -3.17943 -18.5076 -2.56594
v -4.42543 -18.518 -2.23666
v -6.06803 -18.5928 -0.0746953
v -4.16776 -18.8596 -1.09056
v -5.71127 -18.2094 -2.41264
v -7.01376 -17.9698 -1.5307
v -4.61365 -18.8628 -0.206156
v -5.23479 -18.7167 1.11695
v -7.44639 -17.9894 0.111755
v -5.2859 -18.4952 2.47464
v -6.35056 -18.4536 4.46211
v -5.40649 -18.6302 -1.24815
v -6.45558 -18.3957 1.31282
v -4.07559 0.81435 -3.37321
v -3.01328 0.917503 -3.98176
v -2.64792 0.82237 -4.31244
v -2.39854 0.502634 -4.88434
v -2.43018 -0.562366 -6.31426
v -1.81383 -1.28142 -7.33229
v -2.7711 -2.45145 -7.83354
v -3.89518 -3.07393 -7.81547
v -4.38702 -3.44545 -7.83122
v -5.07478 -2.52121 -6.56103
v -3.59595 -0.128111 -4.91497
v -3.01339 -1.61036 -7.06429
v -11.9076 -3.05627 -2.44729
v -11.4642 -2.59777 -2.63262
v -11.3807 -2.50191 -2.66664
v -10.9963 -2.45589 -2.73772
v -9.54351 -1.92122 -3.00943
v -9.02267 -1.69639 -3.10809
v -6.46369 -1.96419 -4.76823
v -5.91052 -2.75405 -6.16624
v -5.69149 -3.01245 -6.68104
v -5.69787 -3.48755 -7.19219
v -5.7222 -3.6944 -7.32863
v -5.78445 -4.13586 -7.49004
v -6.33436 -5.09181 -7.45393
v -7.1773 -6.32121 -7.1754
v -8.30267 -6.81799 -5.85339
v -9.49625 -6.19219 -3.83241
v -9.72031 -5.83697 -3.05128
v -9.88143 -5.50292 -2.78206
v -10.2048 -5.25703 -2.54214
v -11.0132 -4.37264 -2.38157
v -10.3347 -3.28058 -2.84892
v -8.89488 -3.64838 -3.78764
v -7.39682 -5.1829 -6.51363
v -7.09365 -2.91284 -5.2027
v -8.5698 -5.68259 -5.16851
v -6.25062 -3.7202 -6.81526
v -7.74301 -4.1912 -5.61262
v -8.70142 0.594052 -0.920757
v -6.79699 0.703026 -0.316032
v -5.87053 -0.099028 0.846976
v -5.60934 -0.442833 1.28366
v -5.60657 0.0888788 0.489344
v -5.53102 0.293355 -0.0556779
v -5.31261 0.422834 -0.443193
v -5.21918 0.483345 -0.703625
v -5.07961 0.530771 -1.05358
v -5.02496 0.527718 -1.32527
v -4.68414 0.55934 -2.41843
v -4.43626 0.629863 -2.94323
v -4.35969 0.506213 -3.32543
v -3.97593 -0.133254 -4.57193
v -4.01385 -0.263501 -4.71016
v -5.49839 -1.61652 -5.14622
v -7.7959 -1.95632 -3.82751
v -8.28439 -1.74111 -3.39577
v -8.50943 -1.55299 -3.23275
v -9.24276 -1.10848 -2.90643
v -9.51959 -0.734962 -2.68105
v -9.94518 -0.509204 -2.52
v -10.1194 0.130665 -2.12199
v -9.9866 0.49603 -1.75844
v -9.70319 0.877582 -1.27132
v -9.08794 -0.0765847 -2.05766
v -5.11385 -0.535856 -4.05713
v -8.4666 -1.17976 -3.08942
v -7.39512 0.204022 -1.26135
v -4.87962 0.368914 -2.61413
v -6.89682 -1.50643 -4.04277
v -5.79997 0.354131 -0.842497
v -6.80961 -0.358092 -2.51956
v 11.1959 -3.85244 -1.97657
v 11.5897 -4.46941 -1.60203
v 11.635 -4.7573 -1.27203
v 11.6143 -5.1247 -0.762655
v 10.7871 -5.25766 0.0620276
v 10.3689 -5.41321 0.683658
v 9.82201 -5.34246 0.995192
v 8.79574 -5.3899 1.07006
v 8.63593 -5.55682 1.00629
v 8.90097 -6.14035 0.232997
v 4.1773 0.108464 -1.12358
v 4.91844 -0.390622 0.436485
v 4.91401 -0.456217 0.794712
v 5.59278 -0.347554 0.546112
v 6.82164 -0.114435 0.152843
v 6.90477 -0.107049 0.092802
v 7.95237 -0.263191 -0.902691
v 6.83938 -2.92594 -6.38791
v 7.06427 -3.82385 -6.47767
v 8.75915 -6.01866 -0.508243
v 9.00918 -6.51361 -0.8432
v 9.6344 -7.67087 -1.17538
v 9.91865 -8.29697 -1.41246
v 9.9463 -8.98907 -2.42912
v 9.71947 -9.7746 -3.8076
v 9.26766 -9.31935 -4.56685
v 8.84103 -8.93539 -5.16779
v 8.30721 -7.8594 -5.61632
v 9.68052 -9.04919 -3.54201
v 9.71911 -8.32666 -2.45901
v 9.03965 -8.0465 -4.1884
v 9.05844 -6.98945 -2.35701
v 8.69724 -0.416741 -1.47101
v 8.93851 -0.484356 -1.70123
v 9.193 -0.537614 -1.94412
v 9.35822 -0.492823 -2.0412
v 9.4429 -0.502044 -2.0943
v 9.55262 -0.580751 -2.17612
v 9.79774 -0.816638 -2.37472
v 10.8493 -0.994233 -2.72748
v 10.9286 -1.36502 -2.82725
v 8.45234 -2.85819 -5.54703
v 7.56359 -2.82224 -6.05728
v 6.92526 -2.86857 -6.34005
v 6.91333 -2.8751 -6.34783
v 6.88812 -2.83535 -6.32688
v 9.88231 -1.31778 -2.69931
v 8.0728 -2.33546 -5.59427
v 9.13902 -1.70408 -3.72959
v 9.01551 -2.02018 -4.50899
v 9.24112 -0.891202 -2.21326
v 8.62813 -2.33031 -5.18904
v 9.10216 -1.45939 -2.86325
v 9.18097 -2.28716 -4.62239
v 9.34959 -2.23342 -4.19029
v 9.43874 -2.02307 -3.84721
v 9.52262 -1.84962 -3.43672
v 9.88858 -1.37055 -2.7356
v 9.97292 -1.37318 -2.71743
v 10.6578 -1.38478 -2.78418
v 11.4262 -2.25161 -3.07977
v 11.1491 -3.83057 -1.95336
v 11.1613 -3.85052 -1.94696
v 9.86232 -4.75237 0.238385
v 9.54842 -4.94278 0.477411
v 8.94152 -5.09735 0.654812
v 8.53747 -5.22139 0.599743
v 8.54208 -5.28375 0.192401
v 8.59503 -5.52132 -0.210122
v 8.63704 -5.63352 -0.625862
v 8.67569 -5.7476 -0.761045
v 8.78515 -5.91158 -1.3542
v 8.8186 -5.997 -1.90537
v 8.8466 -6.27868 -2.65807
v 8.79388 -6.83838 -3.55363
v 8.5458 -7.08197 -4.84782
v 8.3055 -7.20489 -5.44861
v 8.03506 -7.17013 -5.8263
v 7.58687 -7.06429 -6.31421
v 7.09222 -6.22165 -6.76013
v 6.99566 -5.90388 -6.80994
v 7.11769 -5.44676 -6.57199
v 7.22574 -4.81445 -6.39822
v 7.54531 -4.33099 -6.05524
v 8.17145 -3.53496 -5.58414
v 8.2829 -3.23598 -5.56374
v 8.47891 -3.01988 -5.48988
v 8.71172 -2.8384 -5.34014
v 8.91588 -2.58714 -4.90522
v 9.22905 -3.21626 -3.32277
v 10.4072 -1.86699 -2.8685
v 10.1464 -3.71109 -1.40823
v 8.76579 -4.34929 -3.37235
v 8.34496 -5.61151 -4.79166
v 7.54086 -6.30524 -6.22704
v 9.67781 -2.66327 -3.1221
v 8.76442 -5.78391 -1.78126
v 8.4693 -3.3148 -5.34054
v 8.21386 -6.51046 -5.31223
v 7.77806 -5.35658 -5.75691
v 8.67782 -5.71098 -3.67877
v 8.28761 -4.59537 -4.98945
v 1.93589 -3.13639 -8.07559
v 2.96972 -2.55539 -7.6485
v 6.46168 -2.94844 -6.57555
v 6.48287 -3.24998 -6.73225
v 6.65251 -3.83651 -6.81666
v 6.63047 -4.17491 -6.90402
v 6.53577 -4.92629 -7.12199
v 6.22202 -5.42954 -7.64814
v 5.94225 -5.55822 -7.88632
v 4.47588 -5.97224 -8.66282
v 3.33678 -5.05508 -8.73225
v 2.55473 -4.56142 -8.637
v 2.14119 -3.75666 -8.33357
v 2.93428 -3.48044 -8.15491
v 4.72946 -4.99415 -8.39975
v 4.02671 -2.4857 -7.40436
v 6.03496 -2.76729 -6.59791
v 5.79391 -4.84085 -7.7926
v 3.77326 -4.36602 -8.44775
v 3.58482 -2.80425 -7.76507
v 6.08131 -4.03111 -7.22385
v 4.94066 -4.30357 -8.12438
v 4.30976 -3.3525 -7.85572
v -6.69873 -18.1695 2.15848
v -6.65123 -18.1303 2.61053
v -6.65005 -18.1919 3.74706
v -6.59452 -18.248 4.31753
v -6.60953 -18.2719 4.46994
v -7.52774 -18.1787 5.15636
v -8.2386 -17.7983 5.57224
v -8.99798 -16.0422 5.7175
v -9.10489 -15.5564 5.6305
v -8.94158 -14.8465 5.34916
v -8.85115 -14.3736 5.28458
v -8.76601 -14.0843 5.16017
v -9.04013 -13.5063 4.185
v -9.28124 -13.461 3.89239
v -10.0332 -13.8429 2.5724
v -10.2986 -14.034 2.00737
v -10.4451 -14.0702 1.67098
v -10.5103 -14.2304 1.23307
v -10.4303 -14.8195 0.335175
v -10.3283 -15.0238 -0.154214
v -10.0309 -15.414 -0.568392
v -9.81732 -15.7004 -0.680132
v -9.46997 -16.1514 -0.614495
v -9.0282 -16.6431 -0.617155
v -8.59994 -17.1118 -0.389686
v -8.29905 -17.4767 -0.173699
v -7.83682 -17.7464 0.305225
v -7.64837 -17.8425 0.522578
v -7.12772 -18.0109 1.51616
v -7.68025 -17.739 4.84566
v -8.9023 -16.2534 2.43343
v -7.10701 -17.8596 3.49777
v -8.83115 -14.9454 4.63058
v -7.33821 -17.7338 2.37078
v -8.09006 -16.8863 3.76566
v -8.23971 -17.3632 0.770131
v -10.0971 -15.0126 1.4035
v -8.58815 -16.421 5.16807
v -9.00825 -16.7204 -0.00615466
v -9.57552 -14.4795 3.00892
v -9.33159 -16.2984 1.06898
v -9.91096 -15.6249 0.0619866
v 8.3814 -14.9799 6.27751
v 8.46067 -15.464 5.98351
v 8.76236 -16.8125 5.91722
v 8.70327 -17.2075 5.77145
v 8.45453 -17.6074 5.5089
v 8.27515 -17.6796 5.34943
v 7.74341 -18.0918 5.02783
v 7.04471 -17.7767 4.3167
v 6.81557 -17.816 3.82756
v 6.796 -17.8101 3.7521
v 6.78658 -17.7709 3.57246
v 6.50413 -17.6945 2.80191
v 6.61547 -17.6212 2.42455
v 6.55059 -17.6512 1.96829
v 6.8621 -17.6354 0.895469
v 9.67798 -15.38 0.757261
v 9.7305 -15.27 1.1189
v 9.61029 -15.0268 2.19635
v 9.51283 -14.6511 2.81565
v 8.91128 -14.6703 3.53605
v 8.01937 -14.2508 5.07888
v 8.05359 -14.5364 5.5558
v 8.29367 -15.2241 4.59372
v 8.37049 -16.2972 2.59206
v 8.33549 -16.8987 5.24999
v 7.12357 -17.4404 3.25876
v 8.85546 -15.2579 3.21689
v 7.27742 -17.307 1.73947
v 7.88345 -16.6415 3.88891
v 3.2997 -20.3881 5.53909
v 2.77006 -20.1195 6.00748
v 2.39592 -19.7411 6.15724
v 1.79724 -19.2007 6.60655
v 0.903801 -17.5652 6.32278
v 0.819213 -17.5132 6.3599
v 0.816415 -17.3996 6.34521
v 0.872976 -16.4585 6.16572
v 0.773509 -16.3777 6.13872
v -0.547262 -17.0551 5.50003
v -0.973561 -17.5299 4.92954
v -1.05401 -17.6253 4.77218
v -1.12574 -17.9811 3.99315
v -1.2152 -18.0645 3.81685
v -1.35549 -18.194 3.5383
v -1.28091 -18.2905 3.2334
v -1.65231 -18.7287 2.03541
v -1.52133 -18.7724 1.73952
v -0.878568 -18.7952 0.622388
v -0.801691 -18.8344 0.243165
v -0.266011 -18.7777 0.116888
v 0.487302 -18.7202 -0.0958914
v 1.16724 -18.6452 -0.0797194
v 1.797 -18.5832 0.119665
v 1.98215 -18.5648 0.221307
v 2.17779 -18.5519 0.285758
v 2.36027 -18.5359 0.353912
v 2.64294 -18.497 0.496052
v 3.05615 -18.4491 0.756121
v 3.32277 -18.4161 1.03429
v 3.70831 -18.378 1.44073
v 4.03184 -18.3639 1.75021
v 4.23198 -18.3538 1.87329
v 4.80725 -18.4013 2.6475
v 4.70108 -19.2392 3.8415
v 4.78113 -19.2989 3.9132
v 4.65522 -19.4986 4.06368
v 4.49572 -19.6828 4.27025
v 4.07878 -19.8736 4.63943
v 3.47393 -20.4479 5.41196
v 1.77681 -18.6705 5.9658
v -0.575064 -17.5636 4.78117
v 0.0633911 -18.6297 0.802927
v 2.4431 -18.5662 3.27254
v 2.57915 -19.5432 5.59542
v -0.585391 -18.574 1.66449
v 1.23958 -18.587 0.367539
v 2.84539 -18.4516 1.85583
v 0.440148 -18.1498 3.5708
v 3.82994 -18.6094 2.74043
v 3.79623 -19.2412 4.06544
v 2.05778 -18.5895 4.72207
v -0.884839 -18.471 2.4305
v 2.39938 -18.4968 0.690339
v 1.4227 -18.4429 1.57717
v -0.63572 -18.0995 3.62193
v 0.573386 -17.8004 4.4211
v 0.359991 -18.3453 2.53648
v 1.20802 -18.2981 3.52746
v 3.25102 -19.7958 5.08352
v 1.62741 -18.4094 2.59641
v 1.82982 1.1026 -4.29731
v 2.14285 1.08445 -4.22759
v 2.95076 0.877488 -3.66644
v 2.98549 0.855517 -3.62364
v 3.79793 0.319393 -2.71542
v 4.12368 0.282059 -1.92775
v 4.30384 0.0401254 -1.24999
v 4.56875 -0.177317 -0.761825
v 4.57058 -0.210269 -0.490365
v 4.89702 -0.312656 -0.269487
v 5.22304 -0.380424 0.181221
v 5.68299 -0.366576 0.289866
v 6.37003 -0.304144 0.00581551
v 6.71185 -0.27473 -0.0149846
v 7.05235 -0.330692 -0.290053
v 7.89141 -0.313382 -0.890815
v 7.93923 -0.314016 -0.920161
v 7.9657 -0.340564 -0.959427
v 8.22883 -0.450128 -1.21454
v 8.43247 -0.515643 -1.37359
v 8.61363 -0.580544 -1.54939
v 8.73145 -0.656186 -1.6903
v 8.76697 -0.720041 -1.76831
v 8.7721 -0.849813 -1.89958
v 8.75988 -1.10623 -2.26907
v 8.87818 -1.4298 -2.80345
v 8.8987 -1.47803 -2.92125
v 8.92778 -1.64986 -3.58093
v 8.85436 -1.68043 -3.74827
v 8.68271 -1.82822 -4.30442
v 8.55286 -1.90061 -4.57388
v 8.26347 -2.03901 -5.01986
v 8.01731 -2.2227 -5.49377
v 7.84969 -2.24671 -5.59245
v 7.42064 -2.56668 -5.97796
v 6.97867 -2.68023 -6.205
v 6.81232 -2.73732 -6.28186
v 6.75379 -2.73715 -6.29925
v 6.63527 -2.72835 -6.33767
v 6.34126 -2.72592 -6.45932
v 6.03572 -2.73712 -6.5759
v 6.01617 -2.72636 -6.57869
v 5.85948 -2.65841 -6.62155
v 4.92149 -2.58451 -7.04933
v 4.49181 -2.33052 -7.08995
v 4.09961 -2.24 -7.16576
v 3.52239 -2.00392 -7.02253
v 2.86916 -1.16863 -6.488
v 1.76171 0.735625 -4.68584
v 1.66487 1.01053 -4.4289
v 2.15187 0.158104 -5.18725
v 2.7369 -0.0569637 -5.14276
v 6.18456 -1.18102 -3.30694
v 5.51754 -0.387007 -0.138093
v 4.18287 -2.10341 -7.03172
v 2.31117 -0.186015 -5.544
v 2.24825 0.599224 -4.61691
v 2.90344 0.52885 -4.1564
v 3.42107 -1.02994 -6.21281
v 6.59803 -1.59551 -5.07391
v 4.43659 -0.538406 -4.23958
v 5.33731 -0.6382 -1.96014
v 7.06308 -1.19329 -1.89896
v 7.55481 -1.52389 -3.50817
v 2.74482 -0.569676 -5.86585
v 3.65393 -1.55781 -6.66293
v 7.64678 -1.90613 -5.13208
v 7.18798 -2.17926 -5.72268
v 6.47164 -2.47556 -6.22422
v 6.33516 -1.27943 -4.08912
v 4.30484 -1.22518 -6.06884
v 3.50179 0.238598 -3.80412
v 3.62937 -0.242691 -4.69546
v 5.39263 -0.904666 -3.71166
v 5.96089 -0.496581 -0.683191
v 4.75553 -0.22563 -1.33388
v 4.34791 -0.0232664 -2.25096
v 5.76271 -0.971029 -2.68868
v 8.28118 -0.886212 -1.76605
v 7.38063 -0.591522 -0.964355
v 6.30434 -0.995099 -1.77953
v 6.56702 -1.26224 -2.60364
v 8.45614 -1.47729 -3.02895
v 7.37405 -1.39978 -2.67078
v 8.17515 -1.72683 -4.25106
v 6.86143 -1.38757 -3.41782
v 7.19747 -1.53097 -4.23492
v 5.28917 -2.12563 -6.51375
v 5.4313 -1.34405 -5.44274
v 4.37997 -1.92762 -6.79422
v 4.43515 -0.779744 -5.1061
v 3.86242 0.132564 -3.08555
v 3.57339 -0.635712 -5.56185
v 4.83279 -0.281533 -0.577737
v 4.43921 -0.353131 -3.29897
v 5.78873 -1.18099 -4.62828
v 5.10968 -0.934761 -4.6543
v 5.05985 -0.638208 -2.77254
v 1.26048 -14.7571 -7.51923
v 1.61391 -14.1222 -8.00175
v 1.87284 -13.359 -8.42784
v 2.11706 -12.859 -8.64877
v 2.28411 -12.2549 -8.88643
v 2.32232 -12.0841 -8.94502
v 2.51235 -11.4023 -9.139
v 2.64389 -11.2484 -9.17194
v 2.6727 -11.0391 -9.21257
v 2.75291 -10.7802 -9.22671
v 3.10031 -10.3756 -9.23304
v 4.02232 -9.79451 -9.22524
v 4.19319 -9.74414 -9.21358
v 4.49815 -9.97961 -9.06529
v 5.90631 -9.90898 -8.27079
v 7.10811 -10.9218 -7.30582
v 8.2148 -11.3082 -6.29425
v 8.7225 -11.0683 -5.63808
v 9.23151 -11.7321 -4.93348
v 9.622 -12.0219 -4.1483
v 9.98076 -12.7315 -2.72422
v 10.1977 -12.891 -0.97509
v 10.1355 -14.1377 -0.176482
v 9.787 -15.0687 0.180417
v 9.6046 -15.4187 0.405968
v 9.52341 -15.5428 0.486773
v 9.3482 -15.726 0.605403
v 9.18502 -15.861 0.750823
v 8.94719 -16.0392 0.935572
v 8.58174 -16.3696 1.06587
v 8.10979 -16.7976 0.826284
v 7.32337 -17.3813 0.673521
v 7.03393 -17.5597 0.626916
v 6.77719 -17.6594 0.335673
v 6.23446 -17.8087 0.188258
v 5.86473 -17.8769 0.032473
v 5.81028 -17.8893 -0.0104367
v 5.4056 -17.9996 -0.252929
v 5.11535 -18.0645 -0.483824
v 4.76998 -18.1185 -0.880798
v 4.0931 -18.1705 -1.5634
v 3.41899 -18.1839 -1.97881
v 2.1625 -17.9792 -3.28478
v 2.06931 -17.9565 -3.39523
v 2.05876 -17.887 -3.56022
v 1.25829 -17.4163 -4.55147
v 1.05062 -16.7645 -5.43113
v 0.679545 -16.3491 -5.91016
v 0.60457 -16.211 -6.06796
v 0.549024 -16.0492 -6.24893
v 0.4998 -15.8555 -6.44711
v 0.652087 -15.1767 -7.01164
v 1.0161 -15.0351 -7.21567
v 1.08058 -16.0998 -6.20413
v 5.37179 -12.6779 -8.19881
v 8.94052 -15.9579 -1.65372
v 2.63421 -17.0526 -5.07103
v 1.4188 -15.3119 -7.01011
v 8.01085 -12.2902 -6.46064
v 4.20867 -14.6544 -7.51708
v 3.85656 -10.857 -9.0447
v 3.34972 -12.4482 -8.71611
v 5.7626 -11.141 -8.30145
v 7.76815 -17.0312 -0.633836
v 9.63139 -14.2495 -3.36863
v 9.14863 -15.8788 0.309822
v 9.71828 -14.9 -0.858731
v 2.7183 -17.8794 -3.4075
v 6.69445 -12.7828 -7.40435
v 8.68633 -11.8452 -5.76163
v 7.27725 -15.5686 -4.79375
v 2.93507 -16.0795 -6.3643
v 3.08804 -13.7476 -8.18434
v 2.73452 -14.9041 -7.42998
v 4.76409 -13.8018 -7.92785
v 6.06211 -17.8126 -0.550002
v 9.90044 -13.8497 -2.23479
v 9.27031 -15.0742 -2.83079
v 9.66072 -13.4775 -3.72397
v 8.11617 -14.5399 -5.19457
v 8.29662 -15.3594 -4.04683
v 5.58873 -17.3002 -3.7367
v 5.74754 -15.2857 -6.2188
v 5.85778 -13.6544 -7.5684
v 8.8628 -13.0972 -5.24432
v 7.6291 -13.7026 -6.29806
v 8.13551 -16.3413 -2.70127
v 9.13848 -14.3695 -4.15261
v 4.40254 -17.2081 -4.49678
v 4.26564 -17.9077 -2.68561
v 5.86252 -17.6355 -2.49267
v 6.48562 -16.5955 -4.15049
v 6.93278 -14.8793 -5.85708
v 5.30878 -14.5859 -7.1558
v 4.33214 -15.6151 -6.57886
v 7.49304 -16.145 -3.85419
v 3.89555 -16.6003 -5.65267
v 7.1955 -17.2256 -2.10135
v 5.50509 -16.7471 -4.66901
v 6.13653 -15.9249 -5.25062
v 6.29974 -17.1925 -3.43905
v 6.44628 -14.1865 -6.82055
v 5.00347 -16.345 -5.4749
v 6.98854 -16.9314 -3.18964

g Teddy
f 3 4 2
f 8 9 7
f 8 7 6
f 10 9 8
f 14 13 4
f 7 16 15
f 9 17 16
f 9 16 7
f 21 22 20
f 21 20 19
f 23 24 22
f 23 22 21
f 25 26 23
f 26 24 23
f 27 28 25
f 28 26 25
f 20 30 29
f 22 31 30
f 22 30 20
f 24 32 31
f 24 31 22
f 26 33 24
f 33 32 24
f 28 34 26
f 34 33 26
f 35 34 28
f 1 29 36
f 30 37 36
f 30 36 29
f 31 38 37
f 31 37 30
f 32 39 38
f 32 38 31
f 33 40 32
f 40 39 32
f 34 41 33
f 41 40 33
f 35 42 34
f 42 41 34
f 42 35 11
f 45 21 19
f 45 19 44
f 46 23 21
f 46 21 45
f 47 25 46
f 25 23 46
f 48 27 47
f 27 25 47
f 1 12 43
f 13 44 12
f 44 43 12
f 14 45 13
f 45 44 13
f 15 46 14
f 46 45 14
f 16 47 46
f 16 46 15
f 17 48 47
f 17 47 16
f 18 49 48
f 18 48 17
f 49 18 11
f 50 51 52
f 53 54 52
f 53 52 51
f 55 56 54
f 55 54 53
f 57 58 56
f 57 56 55
f 59 60 57
f 60 58 57
f 61 62 59
f 62 60 59
f 63 64 61
f 64 62 61
f 64 63 65
f 50 52 66
f 54 67 52
f 67 66 52
f 56 68 54
f 68 67 54
f 58 69 56
f 69 68 56
f 60 70 69
f 60 69 58
f 62 71 70
f 62 70 60
f 64 72 71
f 64 71 62
f 72 64 65
f 74 55 73
f 55 53 73
f 75 57 74
f 57 55 74
f 76 59 57
f 76 57 75
f 77 61 59
f 77 59 76
f 78 77 76
f 79 77 78
f 50 66 80
f 67 81 80
f 67 80 66
f 68 82 81
f 68 81 67
f 69 83 82
f 69 82 68
f 70 84 69
f 84 83 69
f 71 85 70
f 85 84 70
f 72 86 71
f 86 85 71
f 86 72 65
f 50 80 87
f 81 88 87
f 81 87 80
f 82 89 88
f 82 88 81
f 83 90 89
f 83 89 82
f 84 91 83
f 91 90 83
f 85 92 84
f 92 91 84
f 86 93 85
f 93 92 85
f 93 86 65
f 50 87 94
f 88 95 94
f 88 94 87
f 89 96 95
f 89 95 88
f 90 96 89
f 91 97 90
f 92 98 91
f 98 97 91
f 93 99 92
f 99 98 92
f 99 93 65
f 94 100 101
f 94 101 50
f 95 102 100
f 95 100 94
f 96 103 102
f 96 102 95
f 98 105 97
f 105 104 97
f 99 106 98
f 106 105 98
f 65 107 99
f 107 106 99
f 107 65 108
f 65 79 108
f 100 109 110
f 100 110 101
f 102 109 100
f 106 112 105
f 107 113 106
f 113 112 106
f 128 129 127
f 125 124 129
f 125 129 128
f 36 118 1
f 42 128 41
f 11 125 42
f 125 128 42
f 129 115 127
f 109 116 110
f 116 117 110
f 119 116 109
f 112 123 122
f 113 124 123
f 113 123 112
f 1 2 12
f 4 13 2
f 13 12 2
f 10 17 9
f 18 10 11
f 10 18 17
f 1 43 29
f 19 20 29
f 44 19 29
f 44 29 43
f 35 27 48
f 35 28 27
f 35 49 11
f 49 35 48
f 73 53 51
f 63 61 77
f 79 63 77
f 63 79 65
f 108 79 78
f 108 78 115
f 129 108 115
f 113 107 108
f 124 113 108
f 124 108 129
f 39 126 38
f 128 127 41
f 41 127 40
f 116 2 117
f 2 118 117
f 2 1 118
f 119 3 116
f 3 2 116
f 120 5 119
f 5 3 119
f 122 6 121
f 122 8 6
f 123 8 122
f 123 10 8
f 124 10 123
f 124 125 10
f 125 11 10
f 102 119 109
f 103 119 102
f 103 120 119
f 105 122 104
f 112 122 105
f 122 121 104
f 75 74 114
f 134 126 135
f 137 39 138
f 142 127 143
f 130 131 150
f 151 150 131
f 131 132 151
f 152 151 132
f 132 133 152
f 133 134 152
f 153 152 134
f 134 135 153
f 154 153 135
f 135 136 154
f 136 137 154
f 142 143 155
f 143 144 155
f 156 155 144
f 144 145 156
f 145 146 156
f 157 156 146
f 146 147 157
f 150 151 160
f 160 159 150
f 151 152 161
f 161 160 151
f 152 153 162
f 162 161 152
f 153 154 163
f 163 162 153
f 165 158 176
f 166 176 158
f 158 159 167
f 167 166 158
f 159 160 168
f 168 167 159
f 160 161 168
f 169 168 161
f 161 162 169
f 170 169 162
f 162 163 170
f 171 170 163
f 176 166 193
f 177 193 166
f 166 167 178
f 178 177 166
f 169 170 179
f 180 179 170
f 170 171 180
f 171 172 181
f 182 181 172
f 183 182 172
f 173 174 188
f 188 187 173
f 189 188 174
f 190 189 175
f 193 192 176
f 193 177 205
f 194 205 177
f 181 182 196
f 197 196 182
f 182 183 198
f 198 197 182
f 183 184 199
f 199 198 183
f 184 185 199
f 200 199 185
f 185 186 201
f 201 200 185
f 186 187 202
f 202 201 186
f 187 188 203
f 203 202 187
f 189 190 204
f 205 194 211
f 198 199 206
f 199 200 207
f 207 206 199
f 200 201 208
f 208 207 200
f 201 202 209
f 209 208 201
f 202 203 210
f 210 209 202
f 206 207 212
f 213 212 207
f 207 208 214
f 214 213 207
f 208 209 214
f 215 214 209
f 209 210 216
f 216 215 209
f 212 213 218
f 219 218 213
f 213 214 220
f 220 219 213
f 214 215 221
f 221 220 214
f 215 216 222
f 222 221 215
f 218 219 223
f 224 223 219
f 219 220 225
f 225 224 219
f 220 221 225
f 226 225 221
f 221 222 226
f 227 226 222
f 225 226 228
f 229 228 226
f 226 227 229
f 230 229 227
f 228 229 231
f 229 230 232
f 232 231 229
f 130 75 131
f 114 132 131
f 75 114 131
f 132 114 133
f 126 134 133
f 114 126 133
f 135 126 136
f 39 137 136
f 126 39 136
f 138 39 139
f 40 140 139
f 39 40 139
f 140 40 141
f 127 142 141
f 40 127 141
f 143 127 144
f 115 145 144
f 127 115 144
f 78 146 145
f 145 115 78
f 146 78 147
f 76 148 147
f 78 76 147
f 75 130 149
f 148 76 149
f 76 75 149
f 184 183 172
f 234 228 235
f 236 231 237
f 237 231 238
f 239 232 240
f 240 232 241
f 245 223 246
f 246 223 247
f 248 250 247
f 247 250 246
f 246 250 245
f 236 251 235
f 250 234 251
f 235 251 234
f 239 253 238
f 238 253 237
f 237 253 236
f 251 236 253
f 254 249 255
f 257 240 241
f 255 259 254
f 253 260 251
f 261 255 252
f 252 262 261
f 262 256 261
f 252 263 262
f 264 260 253
f 257 264 240
f 240 264 239
f 253 239 264
f 264 265 260
f 261 256 265
f 260 265 256
f 265 264 259
f 261 265 255
f 259 255 265
f 225 228 234
f 228 231 236
f 235 228 236
f 232 239 238
f 238 231 232
f 241 232 230
f 223 245 244
f 218 223 244
f 224 248 247
f 247 223 224
f 248 224 233
f 234 250 233
f 233 224 234
f 224 225 234
f 233 250 248
f 266 50 267
f 270 117 271
f 272 118 273
f 281 114 282
f 282 114 283
f 285 73 286
f 288 266 305
f 289 305 266
f 266 267 289
f 290 289 267
f 267 268 290
f 268 269 290
f 291 290 269
f 269 270 291
f 270 271 291
f 292 291 271
f 271 272 292
f 293 292 272
f 272 273 293
f 294 293 273
f 273 274 294
f 295 294 274
f 274 275 295
f 296 295 275
f 275 276 296
f 276 277 296
f 297 296 277
f 277 278 297
f 298 297 278
f 278 279 298
f 299 298 279
f 279 280 299
f 280 281 299
f 300 299 281
f 281 282 300
f 282 283 300
f 301 300 283
f 283 284 301
f 284 285 301
f 302 301 285
f 303 302 285
f 285 286 303
f 304 303 286
f 286 287 304
f 287 288 304
f 305 304 288
f 305 289 322
f 306 322 289
f 289 290 306
f 307 306 290
f 290 291 307
f 308 307 291
f 291 292 308
f 309 308 292
f 292 293 310
f 310 309 292
f 293 294 311
f 311 310 293
f 294 295 312
f 312 311 294
f 295 296 313
f 313 312 295
f 296 297 314
f 314 313 296
f 297 298 315
f 315 314 297
f 298 299 316
f 316 315 298
f 299 300 317
f 317 316 299
f 300 301 317
f 318 317 301
f 301 302 318
f 319 318 302
f 302 303 319
f 320 319 303
f 303 304 320
f 321 320 304
f 304 305 321
f 322 321 305
f 322 306 338
f 323 338 306
f 306 307 323
f 324 323 307
f 307 308 324
f 325 324 308
f 308 309 325
f 326 325 309
f 309 310 327
f 327 326 309
f 310 311 327
f 328 327 311
f 311 312 328
f 329 328 312
f 312 313 330
f 330 329 312
f 314 315 331
f 315 316 332
f 332 331 315
f 316 317 333
f 333 332 316
f 317 318 334
f 334 333 317
f 318 319 334
f 335 334 319
f 319 320 335
f 336 335 320
f 320 321 336
f 337 336 321
f 321 322 338
f 338 337 321
f 338 323 339
f 323 324 339
f 324 325 339
f 325 326 339
f 326 327 339
f 327 328 339
f 328 329 339
f 329 330 339
f 331 332 339
f 332 333 339
f 333 334 339
f 334 335 339
f 335 336 339
f 336 337 339
f 337 338 339
f 50 101 268
f 267 50 268
f 101 110 269
f 268 101 269
f 110 117 270
f 269 110 270
f 118 272 271
f 271 117 118
f 36 274 273
f 273 118 36
f 36 37 275
f 274 36 275
f 37 277 276
f 275 37 276
f 37 38 278
f 277 37 278
f 38 126 279
f 278 38 279
f 279 126 280
f 114 281 280
f 126 114 280
f 114 74 284
f 283 114 284
f 73 285 284
f 284 74 73
f 51 287 286
f 286 73 51
f 287 51 288
f 50 266 288
f 51 50 288
f 313 314 330
f 331 330 314
f 330 331 339
f 343 104 344
f 348 103 349
f 352 340 364
f 353 364 340
f 354 353 340
f 341 342 355
f 356 355 342
f 342 343 356
f 343 344 356
f 357 356 344
f 344 345 357
f 358 357 345
f 345 346 358
f 359 358 346
f 360 359 346
f 346 347 360
f 361 360 347
f 347 348 361
f 362 361 348
f 348 349 362
f 349 350 362
f 363 362 350
f 350 351 363
f 351 352 363
f 364 363 352
f 364 353 376
f 365 376 353
f 353 354 365
f 366 365 354
f 355 356 367
f 368 367 356
f 356 357 368
f 369 368 357
f 357 358 369
f 370 369 358
f 358 359 370
f 371 370 359
f 359 360 372
f 372 371 359
f 360 361 373
f 373 372 360
f 361 362 374
f 374 373 361
f 362 363 375
f 375 374 362
f 363 364 376
f 376 375 363
f 376 365 388
f 377 388 365
f 365 366 377
f 378 377 366
f 367 368 379
f 380 379 368
f 368 369 381
f 381 380 368
f 369 370 382
f 382 381 369
f 370 371 382
f 383 382 371
f 371 372 384
f 384 383 371
f 372 373 385
f 385 384 372
f 373 374 385
f 386 385 374
f 374 375 387
f 387 386 374
f 375 376 388
f 388 387 375
f 388 377 399
f 389 399 377
f 377 378 389
f 390 389 378
f 379 380 392
f 392 391 379
f 380 381 393
f 393 392 380
f 381 382 394
f 394 393 381
f 382 383 394
f 384 385 395
f 396 395 385
f 385 386 396
f 397 396 386
f 386 387 397
f 398 397 387
f 387 388 399
f 399 398 387
f 399 389 400
f 389 390 400
f 391 392 400
f 392 393 400
f 393 394 400
f 395 396 400
f 396 397 400
f 397 398 400
f 398 399 400
f 340 90 97
f 341 97 342
f 104 343 342
f 97 104 342
f 121 345 344
f 344 104 121
f 111 346 345
f 345 121 111
f 111 120 347
f 346 111 347
f 120 103 348
f 347 120 348
f 349 103 96
f 350 349 96
f 96 351 350
f 351 96 352
f 90 340 352
f 96 90 352
f 340 341 354
f 341 340 97
f 355 354 341
f 354 355 366
f 367 366 355
f 366 367 378
f 379 378 367
f 378 379 391
f 391 390 378
f 390 391 400
f 383 384 394
f 395 394 384
f 394 395 400
f 404 6 405
f 412 5 413
f 414 401 424
f 415 424 401
f 401 402 415
f 416 415 402
f 402 403 416
f 417 416 403
f 403 404 417
f 404 405 417
f 418 417 405
f 405 406 418
f 406 407 418
f 419 418 407
f 420 419 407
f 407 408 420
f 421 420 408
f 410 411 422
f 423 422 411
f 411 412 423
f 412 413 423
f 413 414 423
f 424 423 414
f 424 415 433
f 425 433 415
f 415 416 425
f 426 425 416
f 416 417 426
f 427 426 417
f 417 418 428
f 428 427 417
f 418 419 429
f 429 428 418
f 419 420 429
f 420 421 430
f 422 423 432
f 432 431 422
f 423 424 433
f 433 432 423
f 433 425 442
f 434 442 425
f 425 426 434
f 435 434 426
f 426 427 436
f 436 435 426
f 427 428 437
f 437 436 427
f 428 429 438
f 438 437 428
f 431 432 440
f 441 440 432
f 432 433 441
f 442 441 433
f 442 434 450
f 435 436 443
f 444 443 436
f 436 437 445
f 445 444 436
f 437 438 446
f 446 445 437
f 440 441 448
f 449 448 441
f 441 442 449
f 450 449 442
f 443 444 451
f 452 451 444
f 444 445 452
f 453 452 445
f 445 446 453
f 454 453 446
f 448 449 457
f 457 456 448
f 449 450 458
f 458 457 449
f 451 452 459
f 452 453 459
f 453 454 459
f 456 457 459
f 457 458 459
f 111 402 401
f 401 120 111
f 121 403 402
f 402 111 121
f 6 404 403
f 403 121 6
f 7 406 405
f 405 6 7
f 406 7 407
f 15 408 407
f 7 15 407
f 410 409 14
f 413 5 414
f 120 401 414
f 5 120 414
f 408 409 421
f 408 15 409
f 409 15 14
f 5 411 3
f 411 5 412
f 411 4 3
f 411 14 4
f 14 411 410
f 409 410 421
f 422 421 410
f 430 429 420
f 429 430 439
f 421 422 430
f 431 430 422
f 439 438 429
f 438 439 447
f 430 431 439
f 440 439 431
f 434 435 450
f 443 450 435
f 447 446 438
f 446 447 455
f 439 440 447
f 448 447 440
f 447 448 456
f 450 443 458
f 451 458 443
f 458 451 459
f 455 454 446
f 454 455 459
f 456 455 447
f 455 456 459
f 461 462 469
f 470 469 462
f 472 471 463
f 463 464 472
f 473 472 464
f 464 465 473
f 465 466 473
f 474 473 466
f 467 468 477
f 477 476 467
f 478 477 468
f 475 476 480
f 480 479 475
f 476 477 481
f 481 480 476
f 477 478 482
f 482 481 477
f 480 481 484
f 484 483 480
f 481 482 485
f 485 484 481
f 486 485 482
f 149 130 460
f 130 150 461
f 460 130 461
f 461 150 462
f 463 159 464
f 158 465 464
f 159 158 464
f 158 165 466
f 465 158 466
f 462 463 470
f 463 462 150
f 471 470 463
f 150 159 463
f 460 461 468
f 469 468 461
f 468 469 478
f 478 486 482
f 486 478 469
f 469 470 486
f 487 154 488
f 487 488 498
f 490 491 501
f 491 492 501
f 502 501 492
f 492 493 502
f 493 494 502
f 503 502 494
f 504 503 494
f 494 495 504
f 495 496 504
f 505 504 496
f 496 497 505
f 498 499 507
f 507 506 498
f 501 502 514
f 514 513 501
f 502 503 515
f 515 514 502
f 503 504 516
f 516 515 503
f 504 505 517
f 517 516 504
f 506 507 518
f 520 519 508
f 521 520 508
f 523 522 509
f 510 511 524
f 525 524 511
f 513 514 528
f 528 527 513
f 514 515 529
f 529 528 514
f 515 516 530
f 530 529 515
f 516 517 531
f 531 530 516
f 520 521 535
f 535 534 520
f 521 522 535
f 536 535 522
f 522 523 536
f 537 536 523
f 524 525 539
f 539 538 524
f 527 528 541
f 542 541 528
f 528 529 542
f 543 542 529
f 529 530 544
f 544 543 529
f 530 531 544
f 545 544 531
f 532 533 546
f 547 546 533
f 534 535 549
f 549 548 534
f 535 536 549
f 550 549 536
f 536 537 551
f 551 550 536
f 541 542 554
f 555 554 542
f 542 543 555
f 543 544 556
f 544 545 556
f 557 556 545
f 546 547 558
f 559 558 547
f 548 549 561
f 561 560 548
f 549 550 562
f 562 561 549
f 550 551 563
f 563 562 550
f 564 563 551
f 566 565 552
f 554 555 568
f 569 568 555
f 571 570 556
f 556 557 571
f 572 571 557
f 558 559 573
f 574 573 559
f 560 561 576
f 576 575 560
f 561 562 576
f 577 576 562
f 562 563 578
f 578 577 562
f 564 565 579
f 565 566 580
f 580 579 565
f 568 569 582
f 583 582 569
f 569 570 583
f 571 572 584
f 585 584 572
f 573 574 586
f 575 576 586
f 576 577 586
f 577 578 586
f 579 580 586
f 582 583 586
f 584 585 586
f 137 138 489
f 490 184 491
f 172 492 491
f 184 172 491
f 172 494 493
f 492 172 493
f 171 495 494
f 494 172 171
f 163 496 495
f 495 171 163
f 496 163 497
f 487 497 163
f 163 154 487
f 488 489 498
f 488 154 489
f 154 137 489
f 499 498 489
f 490 185 184
f 501 500 490
f 500 501 513
f 497 487 505
f 498 505 487
f 505 498 506
f 507 508 519
f 512 511 500
f 511 512 525
f 513 512 500
f 512 513 527
f 506 517 505
f 517 506 518
f 519 518 507
f 518 519 533
f 533 532 518
f 509 510 523
f 524 523 510
f 523 524 538
f 526 525 512
f 525 526 539
f 527 526 512
f 526 527 541
f 518 531 517
f 531 518 532
f 519 520 533
f 534 533 520
f 538 537 523
f 537 538 552
f 540 539 526
f 541 540 526
f 540 541 554
f 532 545 531
f 533 534 547
f 548 547 534
f 552 551 537
f 551 552 565
f 565 564 551
f 538 539 552
f 539 540 552
f 553 552 540
f 554 553 540
f 553 554 568
f 556 555 543
f 555 556 570
f 570 569 555
f 545 532 557
f 546 557 532
f 547 548 559
f 560 559 548
f 567 566 552
f 552 553 567
f 568 567 553
f 567 568 582
f 557 546 572
f 558 572 546
f 559 560 574
f 575 574 560
f 574 575 586
f 563 564 578
f 579 578 564
f 578 579 586
f 566 567 581
f 581 580 566
f 580 581 586
f 582 581 567
f 581 582 586
f 570 571 583
f 584 583 571
f 583 584 586
f 572 558 585
f 573 585 558
f 585 573 586
f 588 483 589
f 589 483 590
f 592 486 593
f 593 486 594
f 597 473 598
f 599 474 600
f 600 474 601
f 480 483 588
f 590 483 484
f 484 485 591
f 485 486 592
f 591 485 592
f 594 486 470
f 472 473 597
f 596 472 597
f 474 599 598
f 598 473 474
f 479 480 588
f 587 479 588
f 484 591 590
f 596 471 472
f 595 471 596
f 595 470 471
f 470 595 594
f 587 588 602
f 603 602 588
f 588 589 603
f 604 603 589
f 589 590 604
f 605 604 590
f 590 591 605
f 591 592 605
f 606 605 592
f 592 593 606
f 593 594 606
f 607 606 594
f 594 595 607
f 608 607 595
f 595 596 608
f 609 608 596
f 596 597 609
f 610 609 597
f 597 598 610
f 598 599 610
f 611 610 599
f 599 600 611
f 600 601 611
f 612 611 601
f 615 602 616
f 602 603 617
f 617 616 602
f 603 604 618
f 618 617 603
f 604 605 619
f 619 618 604
f 605 606 619
f 620 619 606
f 606 607 620
f 621 620 607
f 607 608 621
f 622 621 608
f 608 609 622
f 623 622 609
f 609 610 623
f 624 623 610
f 610 611 624
f 625 624 611
f 611 612 626
f 626 625 611
f 612 613 627
f 627 626 612
f 613 614 628
f 628 627 613
f 616 617 630
f 630 629 616
f 617 618 631
f 631 630 617
f 618 619 632
f 632 631 618
f 619 620 632
f 633 632 620
f 620 621 633
f 634 633 621
f 621 622 634
f 635 634 622
f 622 623 635
f 636 635 623
f 623 624 636
f 637 636 624
f 624 625 637
f 638 637 625
f 625 626 639
f 639 638 625
f 626 627 640
f 640 639 626
f 627 628 641
f 641 640 627
f 629 630 643
f 643 642 629
f 630 631 644
f 644 643 630
f 631 632 645
f 645 644 631
f 632 633 646
f 646 645 632
f 633 634 646
f 647 646 634
f 634 635 647
f 648 647 635
f 635 636 648
f 649 648 636
f 636 637 649
f 650 649 637
f 637 638 650
f 651 650 638
f 638 639 652
f 652 651 638
f 639 640 653
f 653 652 639
f 640 641 654
f 654 653 640
f 642 643 656
f 656 655 642
f 643 644 657
f 657 656 643
f 644 645 658
f 658 657 644
f 645 646 659
f 659 658 645
f 646 647 659
f 660 659 647
f 647 648 660
f 661 660 648
f 648 649 661
f 662 661 649
f 649 650 662
f 663 662 650
f 650 651 663
f 664 663 651
f 651 652 665
f 665 664 651
f 652 653 666
f 666 665 652
f 653 654 667
f 667 666 653
f 655 656 669
f 669 668 655
f 656 657 670
f 670 669 656
f 657 658 671
f 671 670 657
f 658 659 672
f 672 671 658
f 659 660 672
f 673 672 660
f 660 661 673
f 674 673 661
f 661 662 674
f 675 674 662
f 662 663 675
f 676 675 663
f 663 664 676
f 677 676 664
f 664 665 678
f 678 677 664
f 665 666 679
f 679 678 665
f 666 667 680
f 680 679 666
f 668 669 681
f 669 670 681
f 670 671 681
f 671 672 681
f 672 673 681
f 673 674 681
f 674 675 681
f 675 676 681
f 676 677 681
f 677 678 681
f 678 679 681
f 679 680 681
f 616 628 615
f 628 616 629
f 614 615 628
f 629 641 628
f 641 629 642
f 642 654 641
f 654 642 655
f 655 667 654
f 667 655 668
f 668 680 667
f 680 668 681
f 682 178 683
f 686 195 687
f 691 690 682
f 682 683 691
f 684 685 693
f 685 686 693
f 694 693 686
f 686 687 694
f 695 694 687
f 697 696 688
f 700 699 689
f 689 690 700
f 701 700 690
f 690 691 702
f 702 701 690
f 691 692 702
f 703 702 692
f 693 694 704
f 705 704 694
f 694 695 706
f 706 705 694
f 695 696 707
f 707 706 695
f 696 697 708
f 708 707 696
f 709 708 697
f 717 698 737
f 718 737 698
f 698 699 719
f 719 718 698
f 699 700 719
f 720 719 700
f 700 701 720
f 721 720 701
f 701 702 722
f 722 721 701
f 702 703 723
f 723 722 702
f 704 705 724
f 725 724 705
f 705 706 726
f 726 725 705
f 706 707 727
f 727 726 706
f 707 708 728
f 728 727 707
f 708 709 729
f 729 728 708
f 709 710 730
f 730 729 709
f 710 711 731
f 731 730 710
f 712 713 732
f 733 732 713
f 713 714 733
f 734 733 714
f 714 715 734
f 735 734 715
f 715 716 735
f 736 735 716
f 737 718 758
f 738 758 718
f 718 719 738
f 739 738 719
f 719 720 739
f 740 739 720
f 720 721 740
f 741 740 721
f 721 722 741
f 742 741 722
f 722 723 742
f 743 742 723
f 724 725 745
f 745 744 724
f 725 726 746
f 746 745 725
f 726 727 747
f 747 746 726
f 727 728 748
f 748 747 727
f 728 729 749
f 749 748 728
f 729 730 750
f 750 749 729
f 730 731 751
f 751 750 730
f 732 733 752
f 753 752 733
f 733 734 753
f 754 753 734
f 734 735 754
f 755 754 735
f 735 736 755
f 756 755 736
f 758 757 737
f 758 738 779
f 759 779 738
f 738 739 760
f 760 759 738
f 739 740 761
f 761 760 739
f 740 741 762
f 762 761 740
f 741 742 763
f 763 762 741
f 742 743 764
f 764 763 742
f 744 745 765
f 766 765 745
f 745 746 766
f 767 766 746
f 746 747 767
f 768 767 747
f 747 748 768
f 769 768 748
f 748 749 769
f 770 769 749
f 749 750 771
f 771 770 749
f 750 751 772
f 772 771 750
f 752 753 773
f 774 773 753
f 753 754 774
f 775 774 754
f 754 755 775
f 776 775 755
f 755 756 776
f 777 776 756
f 756 757 777
f 778 777 757
f 757 758 779
f 779 778 757
f 779 759 795
f 760 761 780
f 781 780 761
f 761 762 781
f 782 781 762
f 762 763 782
f 783 782 763
f 763 764 784
f 784 783 763
f 765 766 786
f 786 785 765
f 766 767 787
f 787 786 766
f 767 768 788
f 788 787 767
f 768 769 789
f 789 788 768
f 769 770 790
f 790 789 769
f 770 771 791
f 791 790 770
f 771 772 792
f 792 791 771
f 775 776 793
f 778 779 794
f 795 794 779
f 780 781 796
f 781 782 796
f 782 783 796
f 783 784 796
f 785 786 796
f 786 787 796
f 787 788 796
f 788 789 796
f 789 790 796
f 790 791 796
f 791 792 796
f 794 795 796
f 195 686 685
f 687 195 217
f 682 177 178
f 682 194 177
f 690 689 682
f 683 684 691
f 692 691 684
f 167 168 684
f 168 169 684
f 684 178 167
f 683 178 684
f 179 684 169
f 684 179 195
f 684 195 685
f 687 688 695
f 688 687 217
f 696 695 688
f 693 692 684
f 692 693 704
f 704 703 692
f 703 704 724
f 711 712 732
f 724 723 703
f 723 724 744
f 732 731 711
f 731 732 752
f 716 717 736
f 737 736 717
f 736 737 757
f 757 756 736
f 744 743 723
f 743 744 765
f 752 751 731
f 751 752 773
f 765 764 743
f 764 765 785
f 773 772 751
f 759 760 795
f 780 795 760
f 795 780 796
f 785 784 764
f 784 785 796
f 772 773 792
f 793 792 773
f 773 774 793
f 774 775 793
f 792 793 796
f 794 793 776
f 793 794 796
f 776 777 794
f 777 778 794
f 797 195 798
f 800 180 801
f 807 797 817
f 808 817 797
f 809 808 797
f 797 798 809
f 810 809 798
f 798 799 810
f 799 800 810
f 811 810 800
f 800 801 811
f 812 811 801
f 814 813 803
f 803 804 814
f 815 814 804
f 817 808 833
f 818 833 808
f 808 809 819
f 819 818 808
f 809 810 820
f 820 819 809
f 810 811 820
f 821 820 811
f 811 812 822
f 822 821 811
f 813 814 823
f 824 823 814
f 814 815 824
f 825 824 815
f 832 831 816
f 833 818 849
f 834 849 818
f 818 819 835
f 835 834 818
f 819 820 836
f 836 835 819
f 820 821 836
f 837 836 821
f 821 822 838
f 838 837 821
f 823 824 840
f 840 839 823
f 824 825 841
f 841 840 824
f 825 826 841
f 842 841 826
f 826 827 843
f 843 842 826
f 827 828 844
f 844 843 827
f 828 829 845
f 845 844 828
f 829 830 846
f 846 845 829
f 830 831 846
f 847 846 831
f 831 832 847
f 848 847 832
f 849 834 865
f 850 865 834
f 834 835 851
f 851 850 834
f 835 836 852
f 852 851 835
f 836 837 852
f 853 852 837
f 839 840 856
f 856 855 839
f 840 841 857
f 857 856 840
f 841 842 858
f 858 857 841
f 842 843 859
f 859 858 842
f 843 844 860
f 860 859 843
f 844 845 861
f 861 860 844
f 845 846 861
f 862 861 846
f 846 847 862
f 863 862 847
f 847 848 863
f 864 863 848
f 865 850 866
f 866 881 865
f 850 851 867
f 867 866 850
f 851 852 868
f 868 867 851
f 852 853 868
f 869 868 853
f 870 869 853
f 855 856 871
f 872 871 856
f 856 857 872
f 873 872 857
f 857 858 873
f 874 873 858
f 858 859 874
f 875 874 859
f 859 860 876
f 876 875 859
f 860 861 877
f 877 876 860
f 861 862 878
f 878 877 861
f 862 863 878
f 879 878 863
f 863 864 880
f 880 879 863
f 881 866 897
f 882 897 866
f 866 867 883
f 883 882 866
f 867 868 883
f 884 883 868
f 868 869 884
f 885 884 869
f 871 872 887
f 888 887 872
f 872 873 889
f 889 888 872
f 873 874 889
f 890 889 874
f 874 875 891
f 891 890 874
f 875 876 892
f 892 891 875
f 876 877 893
f 893 892 876
f 877 878 894
f 894 893 877
f 878 879 894
f 895 894 879
f 879 880 895
f 896 895 880
f 897 882 898
f 898 913 897
f 882 883 899
f 899 898 882
f 883 884 899
f 900 899 884
f 884 885 900
f 901 900 885
f 902 901 885
f 887 888 903
f 904 903 888
f 888 889 904
f 905 904 889
f 889 890 905
f 906 905 890
f 890 891 907
f 907 906 890
f 891 892 908
f 908 907 891
f 892 893 909
f 909 908 892
f 893 894 910
f 910 909 893
f 894 895 910
f 911 910 895
f 895 896 911
f 912 911 896
f 913 898 914
f 898 899 914
f 899 900 914
f 900 901 914
f 901 902 914
f 903 904 914
f 904 905 914
f 905 906 914
f 906 907 914
f 907 908 914
f 908 909 914
f 909 910 914
f 910 911 914
f 911 912 914
f 798 195 179
f 180 800 799
f 799 798 179
f 179 180 799
f 171 181 802
f 181 196 804
f 803 181 804
f 806 217 807
f 195 797 807
f 217 195 807
f 802 180 171
f 801 180 802
f 802 803 813
f 802 181 803
f 805 217 806
f 801 802 812
f 813 812 802
f 812 813 823
f 805 806 816
f 806 807 816
f 817 816 807
f 823 822 812
f 822 823 839
f 816 817 832
f 833 832 817
f 839 838 822
f 838 839 855
f 855 854 838
f 832 833 848
f 849 848 833
f 837 838 854
f 854 853 837
f 853 854 870
f 848 849 864
f 865 864 849
f 864 865 881
f 854 855 870
f 871 870 855
f 870 871 887
f 887 886 870
f 881 880 864
f 880 881 897
f 869 870 886
f 886 885 869
f 885 886 902
f 897 896 880
f 896 897 913
f 886 887 902
f 903 902 887
f 902 903 914
f 913 912 896
f 912 913 914
f 926 216 927
f 915 916 930
f 931 930 916
f 932 931 916
f 916 917 932
f 933 932 917
f 917 918 933
f 934 933 918
f 918 919 934
f 935 934 919
f 919 920 935
f 936 935 920
f 920 921 936
f 921 922 936
f 937 936 922
f 922 923 937
f 938 937 923
f 923 924 938
f 924 925 938
f 939 938 925
f 926 927 941
f 927 928 941
f 942 941 928
f 928 929 942
f 943 942 929
f 943 930 956
f 944 956 930
f 930 931 944
f 945 944 931
f 931 932 946
f 946 945 931
f 932 933 947
f 947 946 932
f 933 934 948
f 948 947 933
f 934 935 949
f 949 948 934
f 936 937 950
f 937 938 951
f 951 950 937
f 938 939 952
f 952 951 938
f 939 940 952
f 953 952 940
f 940 941 953
f 954 953 941
f 941 942 954
f 955 954 942
f 942 943 955
f 956 955 943
f 956 944 969
f 957 969 944
f 944 945 957
f 958 957 945
f 945 946 959
f 959 958 945
f 946 947 960
f 960 959 946
f 947 948 961
f 961 960 947
f 948 949 962
f 962 961 948
f 950 951 964
f 964 963 950
f 951 952 965
f 965 964 951
f 952 953 965
f 966 965 953
f 953 954 966
f 967 966 954
f 954 955 967
f 968 967 955
f 955 956 968
f 969 968 956
f 969 957 982
f 970 982 957
f 957 958 970
f 971 970 958
f 958 959 972
f 972 971 958
f 959 960 973
f 973 972 959
f 960 961 974
f 974 973 960
f 961 962 975
f 975 974 961
f 963 964 977
f 977 976 963
f 964 965 978
f 978 977 964
f 965 966 978
f 979 978 966
f 966 967 979
f 980 979 967
f 967 968 980
f 981 980 968
f 968 969 981
f 982 981 969
f 982 970 983
f 970 971 983
f 971 972 983
f 972 973 983
f 973 974 983
f 974 975 983
f 976 977 983
f 977 978 983
f 978 979 983
f 979 980 983
f 980 981 983
f 981 982 983
f 915 203 188
f 916 915 188
f 188 189 916
f 917 916 189
f 189 918 917
f 189 204 919
f 918 189 919
f 216 210 928
f 927 216 928
f 928 210 929
f 210 203 929
f 203 915 929
f 929 915 943
f 930 943 915
f 222 216 926
f 941 940 926
f 939 925 227
f 940 222 926
f 227 222 940
f 940 939 227
f 935 936 949
f 950 949 936
f 949 950 963
f 963 962 949
f 962 963 976
f 976 975 962
f 975 976 983
f 985 242 986
f 987 805 988
f 992 263 993
f 995 996 997
f 984 997 996
f 985 998 984
f 997 984 998
f 998 985 986
f 989 999 988
f 988 999 987
f 998 987 999
f 994 995 1000
f 997 1000 995
f 993 1000 992
f 998 1001 997
f 1000 997 1001
f 258 242 985
f 984 258 985
f 816 989 988
f 988 805 816
f 831 830 990
f 830 829 991
f 993 263 252
f 258 984 996
f 995 258 996
f 987 217 805
f 986 987 998
f 986 242 987
f 242 217 987
f 990 999 989
f 989 816 990
f 816 831 990
f 990 991 999
f 990 830 991
f 994 1000 993
f 252 994 993
f 1003 1004 1002
f 1003 1005 1004
f 252 255 1002
f 249 1003 1002
f 1002 255 249
f 1008 713 1009
f 1011 1005 1012
f 1014 249 1015
f 1015 249 1016
f 1013 1021 1012
f 1012 1021 1011
f 1016 1022 1015
f 1015 1022 1014
f 1021 1013 1022
f 1022 1023 1021
f 1018 1021 1023
f 1018 1023 1017
f 1006 1007 1024
f 1025 1018 1017
f 1009 1010 1026
f 1026 1019 1024
f 1009 1026 1008
f 1024 1007 1026
f 1017 1027 1025
f 1027 1019 1025
f 1028 1019 1027
f 1029 1017 1020
f 1017 1029 1027
f 1028 1027 1029
f 1024 1031 1030
f 1028 1031 1019
f 1031 1024 1019
f 714 1007 1006
f 1006 715 714
f 712 1010 1009
f 1009 713 712
f 1003 1013 1012
f 1012 1005 1003
f 1016 249 254
f 716 715 1006
f 1024 1030 1006
f 1008 714 713
f 1007 714 1008
f 1008 1026 1007
f 1014 1022 1013
f 1013 1003 1014
f 1003 249 1014
f 1032 256 1033
f 1036 1000 1037
f 1038 1001 1039
f 1039 1001 1040
f 1042 999 1043
f 1043 999 1044
f 1047 243 1048
f 1048 243 1049
f 1051 250 1052
f 1032 1054 1055
f 1053 1054 1056
f 1033 1056 1032
f 1054 1032 1056
f 1035 1058 1034
f 1034 1058 1033
f 1056 1033 1058
f 1059 1051 1052
f 1056 1059 1053
f 1052 1053 1059
f 1049 1060 1048
f 1048 1060 1047
f 1059 1060 1051
f 1050 1051 1060
f 1061 1036 1037
f 1038 1062 1037
f 1037 1062 1061
f 1057 1061 1062
f 1057 1063 1060
f 1060 1063 1047
f 1039 1064 1038
f 1062 1038 1064
f 1064 1039 1040
f 1040 1041 1064
f 1065 1044 1045
f 1044 1065 1043
f 1042 1043 1065
f 1064 1041 1065
f 1042 1065 1041
f 1066 1060 1059
f 1058 1066 1056
f 1059 1056 1066
f 1066 1058 1061
f 1061 1057 1066
f 1060 1066 1057
f 1063 1057 1067
f 1062 1067 1057
f 1067 1062 1064
f 262 1034 1033
f 1033 256 262
f 262 263 1035
f 1034 262 1035
f 992 1000 1036
f 1000 1001 1038
f 1037 1000 1038
f 1001 998 1041
f 1040 1001 1041
f 998 999 1042
f 1041 998 1042
f 991 1045 1044
f 1044 999 991
f 1045 991 829
f 1049 243 244
f 250 1051 1050
f 1050 245 250
f 251 1053 1052
f 1052 250 251
f 260 1054 1053
f 1053 251 260
f 1054 260 1055
f 256 1032 1055
f 260 256 1055
f 263 992 1036
f 1058 1036 1061
f 1035 263 1036
f 1036 1058 1035
f 1046 829 828
f 1045 1046 1065
f 1045 829 1046
f 1050 1060 1049
f 244 1050 1049
f 1050 244 245
f 1068 142 1069
f 1070 155 1071
f 1075 173 1076
f 1077 1075 1076
f 1071 1078 1070
f 1069 1070 1078
f 1069 1078 1068
f 1071 1072 1078
f 1079 1073 1074
f 1077 1079 1075
f 1074 1075 1079
f 1079 1077 1078
f 1078 1072 1079
f 1073 1079 1072
f 141 142 1068
f 155 1070 1069
f 1069 142 155
f 1071 155 164
f 1072 1071 164
f 164 1073 1072
f 164 174 1074
f 1073 164 1074
f 174 173 1075
f 1074 174 1075
f 1081 510 1082
f 1082 510 1083
f 1087 1077 1088
f 1090 173 1091
f 1096 490 1097
f 1097 490 1098
f 1080 1081 1099
f 1097 1098 1100
f 1098 1099 1100
f 1083 1100 1082
f 1082 1100 1081
f 1099 1081 1100
f 1085 1101 1084
f 1100 1084 1101
f 1095 1096 1101
f 1096 1097 1101
f 1100 1101 1097
f 1102 1092 1093
f 1087 1103 1086
f 1101 1104 1095
f 1091 1092 1105
f 1102 1105 1092
f 1091 1105 1090
f 1089 1090 1105
f 1089 1105 1088
f 1103 1087 1105
f 1088 1105 1087
f 1105 1106 1103
f 1104 1101 1106
f 1103 1106 1101
f 1104 1106 1102
f 1106 1105 1102
f 510 1081 1080
f 1080 511 510
f 1083 510 509
f 1077 1087 1086
f 1077 1076 1089
f 1088 1077 1089
f 1076 173 1090
f 1089 1076 1090
f 173 187 1092
f 1091 173 1092
f 187 186 1093
f 1092 187 1093
f 1094 186 185
f 490 1096 1095
f 1095 185 490
f 500 1099 1098
f 1098 490 500
f 1084 1100 1083
f 509 1084 1083
f 1094 1102 1093
f 1093 186 1094
f 1102 1094 1104
f 1104 1094 1095
f 1095 1094 185
f 1099 500 1080
f 500 511 1080
f 1108 499 1109
f 1112 139 1113
f 1113 139 1114
f 1115 140 1116
f 1116 140 1117
f 1118 1068 1119
f 1120 1078 1121
f 1123 1101 1124
f 1127 509 1128
f 1108 1109 1111
f 1109 1110 1111
f 1108 1111 1112
f 1130 1132 1129
f 1129 1132 1128
f 1127 1128 1132
f 1121 1133 1120
f 1119 1120 1133
f 1134 1123 1124
f 1124 1125 1134
f 1126 1127 1134
f 1132 1134 1127
f 1132 1107 1135
f 1136 1116 1117
f 1133 1136 1119
f 1118 1119 1136
f 1134 1137 1123
f 1133 1122 1137
f 1115 1116 1138
f 1136 1138 1116
f 1115 1138 1114
f 1114 1138 1113
f 1113 1138 1112
f 1108 1112 1138
f 1134 1139 1137
f 1136 1133 1139
f 1137 1139 1133
f 1139 1134 1132
f 1136 1139 1138
f 1132 1135 1139
f 1138 1139 1135
f 507 499 1108
f 499 489 1110
f 1109 499 1110
f 138 1111 1110
f 1110 489 138
f 139 1112 1111
f 1111 138 139
f 140 1115 1114
f 1114 139 140
f 1117 140 141
f 1068 1078 1120
f 1119 1068 1120
f 1122 1077 1086
f 1085 1125 1124
f 1124 1101 1085
f 1085 1084 1126
f 1084 509 1127
f 1126 1084 1127
f 509 522 1129
f 1128 509 1129
f 522 521 1130
f 1129 522 1130
f 508 1107 1131
f 521 508 1131
f 508 507 1108
f 1135 1108 1138
f 1107 508 1108
f 1108 1135 1107
f 1117 1118 1136
f 141 1118 1117
f 1118 141 1068
f 1122 1133 1121
f 1121 1078 1122
f 1078 1077 1122
f 1086 1137 1122
f 1123 1103 1101
f 1103 1123 1086
f 1123 1137 1086
f 1125 1126 1134
f 1125 1085 1126
f 1130 1131 1132
f 1130 521 1131
f 1107 1132 1131
f 1141 613 1142
f 1144 601 1145
f 1147 466 1148
f 1140 1141 1144
f 1141 1142 1144
f 1142 1143 1144
f 1140 1144 1145
f 613 1141 1140
f 1140 614 613
f 612 601 1144
f 1143 612 1144
f 601 474 1146
f 1145 601 1146
f 474 466 1147
f 1146 474 1147
f 466 165 1149
f 1148 466 1149
f 1140 1145 1146
f 1142 613 1143
f 613 612 1143
f 1154 467 1155
f 1151 1152 1153
f 149 460 1152
f 1151 149 1152
f 468 1153 1152
f 1152 460 468
f 467 476 1156
f 1155 467 1156
f 1153 468 1154
f 468 467 1154
f 1159 1149 1160
f 1161 165 1162
f 1165 191 1166
f 1165 1168 1164
f 1168 1163 1164
f 1169 1161 1162
f 1162 1163 1169
f 1168 1169 1163
f 1168 1170 1169
f 1166 1167 1170
f 1166 1170 1165
f 1168 1165 1170
f 1161 1171 1160
f 1171 1161 1169
f 1169 1170 1171
f 1149 165 1161
f 1160 1149 1161
f 176 1163 1162
f 1162 165 176
f 192 1164 1163
f 1163 176 192
f 192 191 1165
f 1164 192 1165
f 191 190 1167
f 1166 191 1167
f 1173 475 1174
f 1174 475 1175
f 1175 475 1176
f 1176 475 1177
f 1177 475 1178
f 1183 1157 1184
f 1184 1157 1185
f 1183 1184 1185
f 1181 1182 1187
f 1176 1177 1190
f 1186 1190 1178
f 1177 1178 1190
f 1176 1190 1175
f 1175 1190 1174
f 1187 1191 1181
f 1186 1192 1190
f 476 475 1173
f 1172 476 1173
f 1178 475 479
f 587 602 1179
f 615 1180 1179
f 1179 602 615
f 1158 1157 1183
f 1182 1158 1183
f 1179 479 587
f 479 1179 1178
f 1178 1179 1186
f 1193 1189 1194
f 1195 1188 1196
f 1197 1186 1198
f 1201 1140 1202
f 1206 1148 1207
f 1209 1159 1210
f 1212 1171 1213
f 1214 1170 1215
f 1216 1167 1217
f 1219 175 1220
f 1223 1158 1224
f 1227 1191 1228
f 1201 1202 1203
f 1194 1229 1193
f 1207 1229 1206
f 1230 1196 1197
f 1199 1230 1198
f 1197 1198 1230
f 1205 1231 1204
f 1200 1231 1230
f 1227 1228 1232
f 1229 1232 1228
f 1209 1232 1208
f 1229 1207 1232
f 1208 1232 1207
f 1221 1234 1220
f 1217 1218 1234
f 1218 1219 1234
f 1220 1234 1219
f 1195 1196 1235
f 1230 1235 1196
f 1229 1194 1235
f 1195 1235 1194
f 1235 1230 1231
f 1213 1236 1212
f 1212 1236 1211
f 1232 1209 1236
f 1210 1236 1209
f 1237 1224 1225
f 1225 1226 1237
f 1232 1237 1227
f 1234 1238 1217
f 1216 1217 1238
f 1216 1238 1215
f 1233 1214 1238
f 1215 1238 1214
f 1222 1239 1221
f 1234 1221 1239
f 1234 1239 1238
f 1233 1238 1239
f 1239 1222 1223
f 1236 1240 1232
f 1233 1240 1214
f 1236 1213 1240
f 1241 1233 1239
f 1237 1241 1224
f 1239 1223 1241
f 1224 1241 1223
f 1233 1241 1240
f 1240 1241 1232
f 1237 1232 1241
f 1188 1195 1194
f 1194 1189 1188
f 1179 1199 1198
f 1198 1186 1179
f 1199 1179 1180
f 1200 614 1140
f 1202 1140 1203
f 1140 1146 1203
f 1146 1147 1205
f 1204 1146 1205
f 1147 1148 1206
f 1149 1208 1207
f 1207 1148 1149
f 1159 1209 1208
f 1208 1149 1159
f 1160 1171 1212
f 1211 1160 1212
f 1171 1170 1214
f 1167 1216 1215
f 1215 1170 1167
f 1167 190 1218
f 1217 1167 1218
f 190 175 1219
f 1218 190 1219
f 1158 1223 1222
f 1182 1225 1224
f 1224 1158 1182
f 1181 1226 1225
f 1225 1182 1181
f 1181 1191 1227
f 1196 1192 1197
f 1196 1188 1192
f 1186 1197 1192
f 1199 1180 1230
f 1200 615 614
f 1180 615 1200
f 1200 1230 1180
f 1203 1146 1204
f 1204 1231 1203
f 1205 1206 1231
f 1205 1147 1206
f 1229 1235 1206
f 1231 1206 1235
f 1211 1236 1210
f 1210 1159 1211
f 1211 1159 1160
f 1214 1240 1213
f 1213 1171 1214
f 1226 1227 1237
f 1226 1181 1227
f 1193 1229 1228
f 1228 1191 1193
f 1191 1189 1193
f 1242 164 1243
f 1244 1157 1245
f 1246 1158 1247
f 1249 175 1250
f 1243 1255 1242
f 1253 1254 1255
f 1242 1255 1254
f 1252 1256 1251
f 1256 1250 1251
f 1245 1258 1244
f 1259 1248 1249
f 1256 1259 1250
f 1249 1250 1259
f 1260 1256 1252
f 1255 1260 1253
f 1252 1253 1260
f 1257 1261 1243
f 1261 1255 1243
f 1259 1262 1248
f 1247 1262 1246
f 1258 1245 1262
f 1246 1262 1245
f 1260 1263 1256
f 1263 1259 1256
f 1259 1263 1262
f 1263 1264 1262
f 1261 1257 1264
f 1264 1263 1260
f 1261 1264 1255
f 1260 1255 1264
f 1158 1246 1245
f 1245 1157 1158
f 1247 1158 1222
f 1221 1220 1248
f 1220 175 1249
f 1248 1220 1249
f 175 189 1251
f 1250 175 1251
f 1251 189 1252
f 1253 1252 189
f 189 174 1253
f 1253 174 1254
f 1242 1254 174
f 174 164 1242
f 1200 1201 1231
f 1140 1201 1200
f 1203 1231 1201
f 1222 1221 1248
f 1247 1248 1262
f 1222 1248 1247
f 1267 1065 1268
f 1268 1065 1269
f 1274 815 1275
f 1275 815 1276
f 1277 196 1278
f 1279 197 1280
f 1280 197 1281
f 1284 212 1285
f 1286 218 1287
f 1291 1063 1292
f 1268 1269 1294
f 1270 1294 1269
f 1296 1266 1267
f 1267 1268 1296
f 1294 1296 1268
f 1297 1274 1275
f 1275 1276 1297
f 1274 1297 1273
f 1265 1266 1298
f 1296 1298 1266
f 1295 1299 1297
f 1299 1295 1298
f 1294 1299 1296
f 1298 1296 1299
f 1295 1300 1298
f 1290 1291 1300
f 1291 1292 1300
f 1292 1293 1300
f 1298 1300 1293
f 1282 1301 1281
f 1280 1281 1301
f 1282 1283 1301
f 1302 1297 1299
f 1299 1294 1302
f 1294 1271 1302
f 1297 1302 1273
f 1303 1287 1288
f 1288 1289 1303
f 1304 1278 1279
f 1279 1280 1304
f 1301 1304 1280
f 1297 1277 1304
f 1278 1304 1277
f 1297 1304 1295
f 1301 1295 1304
f 1301 1305 1295
f 1305 1300 1295
f 1300 1305 1303
f 1306 1303 1305
f 1305 1301 1306
f 1283 1306 1301
f 1285 1286 1306
f 1286 1287 1306
f 1303 1306 1287
f 1285 1306 1284
f 1283 1284 1306
f 1064 1266 1265
f 1265 1067 1064
f 1064 1065 1267
f 1266 1064 1267
f 1046 1270 1269
f 1269 1065 1046
f 1272 827 826
f 815 1274 1273
f 1273 825 815
f 1276 815 804
f 196 197 1279
f 1278 196 1279
f 198 1282 1281
f 1281 197 198
f 198 206 1283
f 1282 198 1283
f 206 212 1284
f 1283 206 1284
f 212 218 1286
f 1285 212 1286
f 244 1288 1287
f 1287 218 244
f 243 1289 1288
f 1288 244 243
f 1063 1291 1290
f 1290 1047 1063
f 1067 1293 1292
f 1292 1063 1067
f 1271 828 827
f 1046 828 1271
f 1270 1271 1294
f 1270 1046 1271
f 1271 827 1272
f 1302 1271 1272
f 1272 1273 1302
f 826 1273 1272
f 1273 826 825
f 1276 804 1297
f 804 1277 1297
f 196 1277 804
f 1289 1290 1303
f 1289 243 1290
f 1290 243 1047
f 1300 1303 1290
f 1265 1298 1293
f 1293 1067 1265
f 1307 689 1308
f 1309 699 1310
f 1315 1030 1316
f 1316 1030 1317
f 1318 1031 1319
f 1322 211 1323
f 1324 194 1325
f 1308 1328 1307
f 1328 1308 1329
f 1328 1329 1327
f 1326 1327 1329
f 1310 1311 1331
f 1311 1312 1331
f 1310 1331 1309
f 1309 1331 1308
f 1329 1308 1331
f 1332 1316 1317
f 1317 1318 1332
f 1318 1319 1332
f 1316 1332 1315
f 1315 1332 1314
f 1326 1333 1325
f 1330 1324 1333
f 1325 1333 1324
f 1333 1326 1329
f 1320 1334 1319
f 1330 1332 1334
f 1319 1334 1332
f 1335 1329 1331
f 1332 1335 1314
f 1335 1332 1330
f 1330 1333 1335
f 1329 1335 1333
f 689 699 1309
f 1308 689 1309
f 698 1311 1310
f 1310 699 698
f 717 1312 1311
f 1311 698 717
f 717 716 1313
f 1312 717 1313
f 1313 716 1006
f 1030 1315 1314
f 1314 1006 1030
f 1031 1318 1317
f 1317 1030 1031
f 1028 1320 1319
f 1319 1031 1028
f 194 1324 1323
f 1323 211 194
f 1325 194 1326
f 1327 1326 194
f 1307 1328 682
f 689 1307 682
f 1327 682 1328
f 682 1327 194
f 1006 1314 1313
f 1314 1331 1312
f 1312 1313 1314
f 1331 1314 1335
f 1321 1028 1029
f 1334 1320 1321
f 1320 1028 1321
f 1337 710 1338
f 1341 697 1342
f 1344 217 1345
f 1346 242 1347
f 1348 258 1349
f 1349 258 1350
f 1350 258 1351
f 1354 252 1355
f 1355 252 1356
f 1357 1004 1358
f 1359 1005 1360
f 1360 1005 1361
f 1363 1021 1364
f 1366 1025 1367
f 1367 1025 1368
f 1373 712 1374
f 1340 1341 1342
f 1340 1342 1343
f 1370 1371 1372
f 1343 1376 1340
f 1340 1376 1339
f 1338 1339 1376
f 1348 1377 1347
f 1344 1345 1377
f 1345 1346 1377
f 1347 1377 1346
f 1356 1378 1355
f 1354 1355 1378
f 1380 1336 1337
f 1337 1338 1380
f 1376 1380 1338
f 1353 1354 1381
f 1378 1381 1354
f 1360 1382 1359
f 1359 1382 1358
f 1358 1382 1357
f 1365 1366 1383
f 1366 1367 1383
f 1385 1369 1370
f 1385 1379 1383
f 1369 1385 1368
f 1383 1367 1385
f 1368 1385 1367
f 1386 1379 1385
f 1372 1373 1386
f 1374 1386 1373
f 1385 1370 1386
f 1372 1386 1370
f 1387 1376 1343
f 1387 1379 1386
f 1376 1387 1380
f 1388 1351 1352
f 1381 1388 1353
f 1352 1353 1388
f 1382 1360 1389
f 1361 1389 1360
f 1389 1361 1362
f 1362 1363 1389
f 1363 1364 1389
f 1383 1389 1365
f 1364 1365 1389
f 1390 1378 1382
f 1383 1390 1389
f 1382 1389 1390
f 1348 1391 1377
f 1391 1348 1349
f 1349 1350 1391
f 1350 1351 1391
f 1351 1388 1391
f 1392 1344 1377
f 1384 1392 1391
f 1377 1391 1392
f 1344 1392 1343
f 1343 1392 1387
f 1393 1378 1390
f 1378 1393 1381
f 1381 1393 1388
f 1388 1393 1391
f 1384 1391 1393
f 1394 1379 1387
f 1387 1392 1394
f 1384 1394 1392
f 1394 1384 1393
f 1395 1336 1380
f 1386 1395 1387
f 1380 1387 1395
f 1386 1374 1395
f 1396 1379 1394
f 1394 1393 1396
f 1390 1396 1393
f 1379 1396 1383
f 1396 1390 1383
f 711 710 1337
f 1336 711 1337
f 709 1339 1338
f 1338 710 709
f 1339 709 697
f 1340 1339 697
f 697 1341 1340
f 697 688 1343
f 1342 697 1343
f 688 217 1344
f 1343 688 1344
f 217 242 1346
f 1345 217 1346
f 242 258 1348
f 1347 242 1348
f 995 1352 1351
f 1351 258 995
f 994 1353 1352
f 1352 995 994
f 994 252 1354
f 1353 994 1354
f 1356 252 1002
f 1002 1004 1357
f 1004 1005 1359
f 1358 1004 1359
f 1011 1362 1361
f 1361 1005 1011
f 1011 1021 1363
f 1362 1011 1363
f 1018 1365 1364
f 1364 1021 1018
f 1018 1025 1366
f 1365 1018 1366
f 1019 1369 1368
f 1368 1025 1019
f 1026 1370 1369
f 1369 1019 1026
f 1010 1372 1371
f 1371 1026 1010
f 1010 712 1373
f 1372 1010 1373
f 711 1336 1375
f 1357 1378 1356
f 1002 1357 1356
f 1378 1357 1382
f 1370 1026 1371
f 1375 1395 1374
f 1374 712 1375
f 712 711 1375
f 1375 1336 1395
f 1400 157 1401
f 1403 1150 1404
f 1406 1151 1407
f 1410 1155 1411
f 1413 1156 1414
f 1416 1172 1417
f 1420 1190 1421
f 1422 1192 1423
f 1424 1188 1425
f 1426 1189 1427
f 1429 1187 1430
f 1432 1185 1433
f 1433 1185 1434
f 1437 1258 1438
f 1438 1258 1439
f 1441 1257 1442
f 1397 1445 1446
f 1409 1450 1408
f 1408 1450 1407
f 1406 1407 1450
f 1442 1451 1441
f 1448 1452 1447
f 1453 1448 1447
f 1447 1445 1453
f 1448 1453 1454
f 1453 1398 1454
f 1444 1461 1455
f 1452 1448 1461
f 1443 1444 1462
f 1455 1462 1444
f 1463 1428 1429
f 1429 1430 1463
f 1464 1456 1463
f 1463 1430 1464
f 1431 1464 1430
f 1437 1465 1436
f 1456 1464 1465
f 1436 1465 1435
f 1435 1465 1434
f 1434 1465 1433
f 1433 1465 1432
f 1465 1437 1438
f 1462 1455 1467
f 1454 1399 1468
f 1457 1469 1468
f 1448 1454 1469
f 1468 1469 1454
f 1470 1449 1466
f 1409 1471 1450
f 1472 1403 1404
f 1458 1472 1471
f 1458 1473 1472
f 1474 1449 1470
f 1417 1418 1475
f 1418 1419 1475
f 1420 1475 1419
f 1417 1475 1416
f 1416 1475 1415
f 1475 1420 1421
f 1411 1476 1410
f 1471 1410 1476
f 1459 1476 1475
f 1413 1476 1412
f 1413 1414 1476
f 1414 1415 1476
f 1475 1476 1415
f 1477 1458 1471
f 1471 1476 1477
f 1459 1477 1476
f 1458 1477 1474
f 1459 1478 1477
f 1477 1478 1474
f 1449 1474 1478
f 1422 1479 1421
f 1475 1421 1479
f 1479 1422 1423
f 1423 1424 1479
f 1424 1425 1479
f 1460 1480 1479
f 1479 1480 1475
f 1459 1475 1480
f 1459 1480 1478
f 1463 1481 1428
f 1427 1428 1481
f 1427 1481 1426
f 1460 1479 1481
f 1426 1481 1425
f 1479 1425 1481
f 1482 1449 1478
f 1478 1480 1482
f 1460 1482 1480
f 1449 1482 1466
f 1463 1483 1481
f 1483 1460 1481
f 1466 1482 1483
f 1460 1483 1482
f 1463 1456 1483
f 1466 1483 1456
f 1439 1484 1438
f 1465 1438 1484
f 1467 1485 1484
f 1456 1465 1485
f 1484 1485 1465
f 1486 1467 1484
f 1484 1440 1486
f 1440 1441 1486
f 1451 1486 1441
f 1467 1486 1462
f 1467 1487 1485
f 1457 1487 1469
f 1488 1401 1473
f 1401 1488 1400
f 1488 1468 1400
f 1489 1469 1487
f 1487 1467 1489
f 1455 1489 1467
f 1469 1489 1448
f 1455 1461 1489
f 1448 1489 1461
f 1471 1472 1490
f 1472 1404 1490
f 1471 1490 1450
f 1450 1490 1406
f 1405 1406 1490
f 1457 1491 1470
f 1473 1491 1488
f 1457 1468 1491
f 1488 1491 1468
f 1466 1492 1470
f 1485 1492 1456
f 1492 1466 1456
f 1470 1493 1457
f 1493 1487 1457
f 1493 1470 1492
f 1487 1493 1485
f 1492 1485 1493
f 1458 1494 1473
f 1494 1491 1473
f 1494 1458 1474
f 1474 1470 1494
f 1491 1494 1470
f 1398 156 157
f 1401 157 147
f 148 149 1405
f 1151 1406 1405
f 1405 149 1151
f 1153 1408 1407
f 1407 1151 1153
f 1153 1154 1409
f 1408 1153 1409
f 1154 1155 1410
f 1156 476 1415
f 1414 1156 1415
f 1172 1416 1415
f 1415 476 1172
f 1172 1173 1418
f 1417 1172 1418
f 1173 1174 1419
f 1418 1173 1419
f 1174 1190 1420
f 1419 1174 1420
f 1192 1422 1421
f 1421 1190 1192
f 1192 1188 1424
f 1423 1192 1424
f 1188 1189 1426
f 1425 1188 1426
f 1191 1428 1427
f 1427 1189 1191
f 1191 1187 1429
f 1428 1191 1429
f 1182 1431 1430
f 1430 1187 1182
f 1183 1185 1432
f 1157 1435 1434
f 1434 1185 1157
f 1244 1436 1435
f 1435 1157 1244
f 1258 1437 1436
f 1436 1244 1258
f 1439 1258 1262
f 1257 1441 1440
f 1440 1264 1257
f 1243 164 1444
f 1443 1243 1444
f 1445 164 155
f 155 156 1397
f 1446 1445 155
f 1397 1446 155
f 1397 1398 1445
f 1397 156 1398
f 1398 1453 1445
f 157 1399 1398
f 1399 1454 1398
f 1400 1468 1399
f 1399 157 1400
f 1401 1402 1473
f 147 1402 1401
f 1405 1490 1404
f 1404 1150 1405
f 1150 148 1405
f 1409 1410 1471
f 1409 1154 1410
f 1476 1411 1412
f 1411 1155 1412
f 1155 1156 1412
f 1412 1156 1413
f 1464 1431 1432
f 1431 1182 1432
f 1182 1183 1432
f 1464 1432 1465
f 1484 1439 1440
f 1262 1440 1439
f 1440 1262 1264
f 1443 1451 1442
f 1442 1257 1443
f 1257 1243 1443
f 1451 1443 1486
f 1462 1486 1443
f 1461 1444 1452
f 1444 164 1452
f 1452 1445 1447
f 164 1445 1452
f 1496 227 1497
f 1499 923 1500
f 1501 922 1502
f 1504 920 1505
f 1506 204 1507
f 1507 204 1508
f 1513 192 1514
f 1518 211 1519
f 1520 1322 1521
f 1526 1321 1527
f 1527 1321 1528
f 1530 1020 1531
f 1533 1023 1534
f 1537 254 1538
f 1538 254 1539
f 1540 259 1541
f 1544 241 1545
f 1541 1542 1548
f 1542 1543 1548
f 1543 1544 1548
f 1544 1545 1548
f 1539 1540 1551
f 1548 1551 1541
f 1540 1541 1551
f 1495 1552 1547
f 1547 1552 1546
f 1511 1553 1510
f 1508 1555 1507
f 1507 1555 1506
f 1505 1506 1555
f 1505 1555 1504
f 1504 1555 1503
f 1503 1555 1502
f 1549 1556 1555
f 1499 1500 1556
f 1500 1501 1556
f 1555 1556 1502
f 1501 1502 1556
f 1499 1556 1498
f 1557 1549 1555
f 1509 1557 1508
f 1555 1508 1557
f 1557 1509 1510
f 1526 1527 1558
f 1528 1558 1527
f 1526 1558 1525
f 1560 1522 1523
f 1550 1560 1558
f 1523 1524 1560
f 1558 1560 1525
f 1524 1525 1560
f 1522 1560 1521
f 1521 1560 1520
f 1520 1560 1519
f 1519 1560 1518
f 1550 1561 1560
f 1560 1561 1518
f 1538 1562 1537
f 1538 1539 1562
f 1551 1562 1539
f 1563 1549 1557
f 1557 1510 1563
f 1553 1563 1510
f 1513 1564 1512
f 1553 1511 1564
f 1512 1564 1511
f 1566 1551 1548
f 1548 1552 1566
f 1497 1567 1496
f 1556 1567 1498
f 1554 1568 1567
f 1567 1568 1496
f 1552 1495 1568
f 1552 1568 1566
f 1549 1569 1556
f 1556 1569 1567
f 1554 1567 1569
f 1534 1570 1533
f 1533 1570 1532
f 1532 1570 1531
f 1531 1570 1530
f 1530 1570 1529
f 1558 1528 1570
f 1529 1570 1528
f 1516 1571 1515
f 1550 1572 1561
f 1561 1572 1571
f 1559 1571 1572
f 1573 1514 1515
f 1559 1573 1571
f 1515 1571 1573
f 1575 1565 1574
f 1563 1578 1549
f 1578 1569 1549
f 1513 1514 1579
f 1573 1579 1514
f 1513 1579 1564
f 1564 1579 1553
f 1580 1563 1553
f 1574 1580 1579
f 1553 1579 1580
f 1558 1581 1550
f 1550 1581 1572
f 1575 1572 1581
f 1582 1573 1559
f 1575 1582 1572
f 1559 1572 1582
f 1573 1582 1579
f 1579 1582 1574
f 1575 1574 1582
f 1551 1583 1562
f 1584 1536 1562
f 1576 1584 1583
f 1562 1583 1584
f 1576 1585 1584
f 1570 1534 1585
f 1584 1585 1535
f 1534 1535 1585
f 1587 1574 1565
f 1574 1587 1580
f 1588 1569 1578
f 1569 1588 1554
f 1577 1589 1588
f 1554 1588 1589
f 1554 1589 1568
f 1566 1568 1589
f 1565 1590 1586
f 1581 1590 1575
f 1590 1565 1575
f 1591 1566 1589
f 1566 1591 1551
f 1591 1583 1551
f 1558 1592 1581
f 1585 1592 1570
f 1592 1558 1570
f 1583 1593 1576
f 1593 1586 1576
f 1586 1594 1565
f 1565 1594 1587
f 1577 1587 1594
f 1594 1586 1593
f 1586 1595 1576
f 1595 1585 1576
f 1578 1596 1588
f 1587 1577 1596
f 1588 1596 1577
f 1587 1596 1580
f 1580 1596 1563
f 1578 1563 1596
f 1597 1594 1593
f 1593 1583 1597
f 1591 1597 1583
f 1597 1591 1589
f 1594 1597 1577
f 1589 1577 1597
f 1581 1598 1590
f 1595 1586 1598
f 1590 1598 1586
f 1598 1581 1592
f 1592 1585 1598
f 1595 1598 1585
f 1497 227 925
f 923 1499 1498
f 1498 924 923
f 923 922 1501
f 1500 923 1501
f 921 1503 1502
f 1502 922 921
f 920 1504 1503
f 1503 921 920
f 1505 920 919
f 190 1509 1508
f 1508 204 190
f 190 191 1510
f 1509 190 1510
f 191 1512 1511
f 1510 191 1511
f 192 1513 1512
f 1512 191 192
f 1514 192 1515
f 1516 1515 192
f 192 193 1516
f 1322 1520 1519
f 1519 211 1322
f 1322 1323 1522
f 1521 1322 1522
f 1323 1324 1523
f 1522 1323 1523
f 1330 1524 1523
f 1523 1324 1330
f 1334 1525 1524
f 1524 1330 1334
f 1334 1321 1526
f 1525 1334 1526
f 1029 1529 1528
f 1528 1321 1029
f 1020 1530 1529
f 1529 1029 1020
f 1020 1017 1532
f 1531 1020 1532
f 1017 1023 1533
f 1532 1017 1533
f 1023 1022 1535
f 1534 1023 1535
f 1022 1016 1536
f 259 1540 1539
f 1539 254 259
f 264 1542 1541
f 1541 259 264
f 257 1543 1542
f 1542 264 257
f 241 1544 1543
f 1543 257 241
f 1495 1547 1546
f 1546 230 1495
f 1402 148 1150
f 147 148 1402
f 1402 1150 1403
f 1403 1472 1402
f 1472 1473 1402
f 1496 1568 1495
f 1495 230 1496
f 1496 230 227
f 1498 1567 1497
f 925 1498 1497
f 1498 925 924
f 1506 1505 919
f 919 204 1506
f 1516 1517 1571
f 1516 193 1517
f 193 205 1517
f 1561 1571 1517
f 1517 1518 1561
f 1517 205 1518
f 205 211 1518
f 1535 1022 1536
f 1536 1584 1535
f 1016 254 1537
f 1562 1536 1537
f 1536 1016 1537
f 1546 1548 1545
f 1545 241 1546
f 241 230 1546
f 1548 1546 1552
